-1,0,-0.125,0.03
2,0.2,0,3.97
2,0.6222222222222222,0,0.25
2,0.53,-0.07448979591836734,0.31
2,0.8198979591836735,-0.1,0.03
0,0,0,0.82
0,0,0,-0.93
2,0.08,0,-0.03
2,0.1625,0,0.29
8,1.2375,-0.1,-0.28
4,1.6975,-0.5499999999999999,0.23
3,0.65,-0.8,-0.03
5,1.270757575757576,0,-1.13
2,0.8371428571428572,-1.1,-0.19
-2,0.625,-0.20525793650793653,-0.89
-2,0,-0.30000000000000004,1.39
4,0.2642857142857143,0,0.62
7,1.2931878306878306,0,-1.12
8,0.733982683982684,0,0.34
2,0.6000000000000001,0,-0.17
-2,0,-0.1,-0.14
2,0.3875,-0.6999999999999998,0.73
2,0.7375,-0.5,-0.51
2,0.25,0,0.40
0,0,0,1.54
4,0.21124338624338626,0,-0.16
-2,0,-0.03333333333333333,0.00
2,0.02771164021164021,0,-0.90
2,0.4375,0,-0.23
0,0,0,0.04
2,1.4,-0.078125,-0.26
4,0.95,-0.3333333333333333,-0.09
6,1.7729166666666665,0,0.71
2,0.28068181818181814,-0.22499999999999992,0.17
-9,0.26666666666666666,-1.2564484126984126,-0.06
11,2.180762987012987,0,-0.26
1,0.8298597236097236,-0.8250000000000001,-0.56
2,0.35,0,0.40
-5,0.2333333333333333,-0.75625,0.50
2,0.8500000000000001,-0.3,0.29
-6,0,-0.39523809523809517,-0.37
5,1.95,0,-1.60
-2,0,-0.04583333333333334,-0.50
2,0.5,0,-0.85
2,0.375,0,2.31
-2,0,-0.09166666666666667,-0.55
5,1.625,0,-0.56
2,0.18055555555555555,0,0.28
0,0,0,-0.54
3,0.35568181818181815,0,0.28
2,0.6,0,-0.68
2,1.8943685300207038,-0.65,0.60
6,0.6556493506493507,-0.25,-0.07
1,1.0083333333333333,-0.44202898550724634,0.04
2,0.2778684807256236,-0.025,0.09
2,0.325,0,-0.23
4,0.35468749999999993,0,0.18
-4,0.144066687280973,-0.39097222222222217,0.85
3,0.7160218253968254,-0.575,0.93
3,1.14503367003367,-0.29010416666666666,-0.93
6,0.8805059523809524,0,0.20
69,22.923550459956715,-1.8761025432900433,-0.12
62,23.444246289424854,-3.3088888888888888,0.62
86,26.280741341991327,-1.501388888888889,-0.18
51,19.29820346320346,-3.194047619047619,-0.43
39,9.495822709765726,-0.4958333333333333,0.04
47,15.228751984126985,-1.1604166666666667,-0.18
47,14.640715187590189,-0.5802083333333334,-1.66
48,15.615070346320348,-1.3820454545454546,0.21
71,18.372551406926405,-0.6000000000000001,0.38
43,14.192772366522362,-1.6584821428571428,-0.12
30,10.46301406926407,-0.6749999999999999,-0.89
38,11.119745670995671,-0.7375,2.15
53,21.877104076479068,-0.9978174603174603,-0.35
38,16.522875180375177,-2.7148518518518516,0.65
68,24.21007115043431,-2.276388888888889,-0.17
39,16.811399711399712,-1.620138888888889,-0.15
46,15.09640764790765,-1.8323232323232324,0.57
61,25.444685555330086,-2.25,0.54
70,25.025593984058265,-1.5880681818181819,-0.34
78,27.528988997113988,-3.9234848484848484,-0.37
109,36.86992177729678,-2.1214285714285714,0.21
70,27.593767406204897,-6.369963924963924,-0.76
82,27.107159451659427,-2.3868055555555556,0.35
87,24.800106301106297,-1.7141666666666668,0.06
79,29.860119949494944,-2.4812662337662332,-0.12
66,20.989055194805182,-2.5350198412698415,0.23
70,16.288506493506492,-1.95,0.41
27,9.828896103896106,-2.228611111111111,-0.42
56,16.57250541125541,-1.1041666666666665,0.35
38,11.09616702741703,-0.1,0.67
35,14.010111832611832,-3.3088458994709,-0.31
36,11.633391053391055,-1.5559027777777776,-0.21
52,16.092350288600294,-0.7354166666666667,-0.20
58,18.17619047619047,-0.25,-0.39
33,12.288860028860027,-1.6017857142857141,-0.70
61,15.764838383838384,-0.9430803571428572,0.15
53,19.75294552669552,-1.1409722222222225,-0.35
48,15.100892857142858,-0.5333333333333333,0.13
45,14.935683621933622,-2.240555555555556,0.08
48,14.033419913419918,-1.1427272727272726,0.25
50,20.466117409093727,-1.5482323232323232,-0.39
82,21.481101573714724,-0.6999999999999998,0.53
60,15.599125420875422,-0.5768518518518518,-0.26
69,21.691313507094755,-0.894119769119769,-0.50
70,24.40296987734488,-2.133685064935065,1.70
60,22.82764780154485,-2.6949729437229437,-0.23
84,24.835513708513687,-0.8603174603174603,-0.04
80,20.76607323232322,-2.241666666666667,0.12
69,19.76443632756132,-2.24760101010101,-0.21
46,18.53158459595959,-2.7964285714285717,0.14
87,18.449960403353263,-0.30833333333333335,0.04
37,14.263939393939394,-1.4236111111111112,-0.21
63,16.82807400932401,-0.8833333333333333,0.04
40,14.020398268398269,-1.2808035714285715,-0.06
55,17.06034290271133,-1.478720238095238,-0.34
50,14.425892857142859,-0.7583333333333333,0.04
36,13.082373737373741,-1.6883333333333337,-0.30
67,17.524465263902766,-1.1325757575757576,-0.15
23,8.544623015873016,-0.48851767676767677,-0.06
39,13.480097402597405,-0.4825,0.05
48,12.44438852813853,-0.8988095238095238,-0.09
33,12.6873556998557,-1.1782602813852816,-0.23
26,9.276406926406928,-0.9680555555555556,-0.15
57,20.095449810606063,-2.4816666666666665,0.25
62,17.342531585385107,-0.9435185185185186,0.10
52,17.73185930735931,-0.10277777777777777,-0.18
73,21.662080627705613,-0.8208333333333333,-0.10
73,22.17660398629147,-1.6651785714285714,-0.29
64,18.889337704778885,-0.7234848484848485,-0.40
57,17.781634983374115,-2.5868055555555554,0.07
75,21.410460321655073,-1.1926415945165947,0.03
77,23.270513663419898,-1.6487752525252524,0.40
67,20.158713023088012,-2.3613293650793654,0.10
58,16.302618477044494,-1.8583333333333334,-0.37
66,20.006270165020165,-0.5833333333333334,-0.56
49,16.454602949134202,-1.2583333333333333,0.29
39,12.181615462662338,-1.2449346405228756,-0.04
54,15.185645833333336,-0.28015873015873016,0.76
46,12.876834415584415,-1.1944444444444444,-0.04
40,14.154187635281387,-2.240203373015873,0.00
29,10.322312184343435,-0.4805555555555555,-0.21
26,9.62304292929293,-1.0026785714285715,-0.09
29,8.05820707070707,-0.4986111111111111,-0.23
36,10.594756493506495,-0.825,-0.21
39,11.172636183261183,-0.6607142857142857,0.06
40,16.46989141414142,-1.6166666666666667,-0.44
45,13.268856421356423,-0.9188034188034189,-0.07
49,14.146425768038931,-0.3931818181818182,-0.26
63,19.986873196248187,-0.30000000000000004,-2.26
39,10.378181193806196,-1.0166666666666668,-0.09
50,15.582812770562775,-1.4318181818181819,2.04
60,13.704180384673808,-1.0133101851851851,-0.53
75,16.57742484367484,-1.720386904761905,-0.85
82,23.35587421837421,-1.756547619047619,0.64
84,21.534368799275455,-0.8077380952380953,-0.87
79,23.431133233596444,-1.3115800865800866,-1.39
76,25.65879902339722,-2.426851851851852,0.58
58,19.004445389266813,-1.8607142857142858,-1.25
67,25.190793277071094,-1.4107738095238094,-0.65
71,26.754769691690417,-2.958333333333334,-1.43
56,17.635709114959113,-1.8180555555555555,-2.94
48,18.295102813852818,-1.9807539682539685,-0.20
41,13.757381966991344,-0.346875,-0.90
39,14.137554944601938,-0.19011025007487273,0.13
45,14.769300144300145,-0.9583333333333334,-2.40
56,15.843541215728717,-1.7037450396825395,-1.25
8,4.783494318181818,-1.3808035714285714,1.06
4,0.44999999999999996,0,-0.65
7,1.6771825396825395,-0.9666666666666667,-0.09
10,1.5047008547008547,0,0.96
3,1.108962355212355,-0.6185714285714285,-0.50
9,1.6841414141414144,0,-1.55
10,1.7480080921257393,0,0.76
5,0.6833333333333333,-0.9333333333333333,-2.49
6,1.6900957049486462,0,-3.59
9,1.1426002112966398,-0.14285714285714285,-1.62
17,2.349929653679654,-0.5,1.81
-2,0.4987301587301587,-0.33958333333333335,-0.88
2,0.7840909090909091,-0.265,-0.74
4,1.115,0,-0.17
4,0.4916262414056532,-0.43125,-0.71
-1,0.6777777777777778,-0.5833333333333333,0.99
13,2.818171344938586,-1.0999999999999999,0.68
5,0.8557142857142856,0,2.38
6,0.359018759018759,0,-1.46
8,1.5491830065359478,0,-2.00
0,0.34374999999999994,-0.08787878787878789,-4.01
5,1.5305238095238094,-0.6,3.30
8,1.877260128216884,-0.1663690476190476,0.71
7,1.2866666666666666,-0.4,-0.93
-2,0,-0.1,0.13
6,0.5358796296296297,0,-0.11
4,1.5304545454545453,-0.6571839080459769,-0.46
12,1.7711309523809522,0,-1.45
2,0.9102996031746031,-0.3672619047619048,0.83
10,2.1009236596736596,-0.1,1.92
11,1.237871572871573,0,-0.34
8,0.7012917493386244,0,-0.15
7,1.2482734086900753,0,-1.02
7,1.6568939393939395,-0.775,-0.80
4,0.41809523809523813,0,1.00
0,0.06544642857142859,-0.18779761904761902,-0.74
0,0.5333333333333333,-0.3,1.28
-2,0,-0.17499999999999996,-0.09
6,1.5718253968253968,0,0.78
0,0,0,-1.53
1,0.11000000000000001,0,0.90
10,1.3093044077134985,-0.13333333333333333,2.33
14,1.223148389658894,-0.07575757575757575,-1.25
-2,0.32416666666666666,-0.25462962962962965,1.59
2,0.05,0,1.61
7,0.8614583333333334,0,-1.34
1,0.31978609625668447,-0.21388888888888888,0.37
1,0.1980357142857143,-0.005357142857142854,0.62
1,0.5833333333333333,-0.1,0.41
0,0.37144444444444447,-0.42500000000000004,0.31
0,0.8133333333333332,-1.187018140589569,-0.10
10,1.2712152777777779,-0.625,-1.66
2,0.8,0,-0.97
1,1.425,-0.75,-0.14
-3,1.9875,-0.9251785714285714,-2.11
10,3.55,-0.14583333333333334,0.44
12,1.7826767676767679,0,-1.59
74,24.996737012986994,-1.7537563131313132,1.40
106,36.000318576925714,-2.0072781385281386,0.34
80,27.80242604617605,-0.8796296296296295,0.69
52,19.118261784511777,-2.335511363636364,-1.88
72,22.5450487012987,-0.9610321969696969,1.09
92,24.44887536075036,-1.9625,0.04
54,20.27385213744589,-3.2194354256854254,-0.22
100,27.81500824175824,-0.925,-0.71
72,21.277971681096684,-0.9560185185185186,1.12
52,17.42876758658009,-0.8310606060606059,-0.72
48,15.854586940836942,-1.0875,-1.46
34,10.213044733044732,-3.3802083333333335,1.13
44,12.884243777056279,-1.7775252525252527,0.97
47,12.16496572871573,-0.7416666666666667,-0.28
35,11.634568542568543,-0.9664206349206348,-1.79
38,12.668364898989902,-1.0333333333333332,0.84
31,11.747335407647906,-0.81328125,-0.87
61,18.15658784271284,-0.15000000000000002,1.62
52,15.239287518037516,-0.7625,-0.88
47,12.58156114718615,-1.4214646464646465,2.47
47,15.764207251082253,-2.036489898989899,0.50
56,19.176951603084415,-1.0555555555555558,0.22
60,20.76709235209236,-1.6363275613275614,-0.37
50,18.72008152958153,-3.166666666666667,0.34
86,29.526728577794763,-4.051039682539682,-0.77
93,30.549029581529574,-0.5694444444444444,0.50
63,23.166470057720055,-2.158888888888889,-0.21
55,23.79316378066378,-5.4803932178932175,1.38
69,24.553270202020204,-1.855277777777778,-0.67
65,17.589850829725833,-1.2694164862914863,0.34
42,16.089570707070706,-1.6314181096681095,-0.43
47,16.51915103415103,-2.278370240870241,0.06
58,17.287189754689756,-1.4347222222222222,-0.59
41,11.792106782106783,-1.7775833333333333,0.61
41,9.896964285714288,-1.1179761904761905,-1.33
43,9.055189393939393,-1.1928030303030306,0.32
49,13.141371076839826,-0.4,-1.03
29,10.04305735930736,-0.9051984126984128,-0.59
38,12.408387445887445,-0.825,0.63
42,13.238164983164983,-0.23181818181818184,-0.12
34,12.234520202020201,-0.44607142857142856,0.28
33,10.220058621933623,-2.606881313131313,0.12
51,14.602501803751803,-0.9843939393939395,1.38
38,17.118781565656565,-2.120912698412698,-2.59
54,23.305984397546894,-1.8253637566137568,-0.40
38,13.630787337662339,-1.705357142857143,0.21
53,13.282301587301589,-1.2,0.18
41,15.689154040404043,-1.2947348484848487,-0.28
63,21.914893465909095,-1.4537499999999999,-0.87
79,21.63580988455988,-1.2,0.56
71,20.87408527236652,-1.5228240740740742,0.03
64,18.547452200577197,-2.1037037037037036,-0.11
82,21.51254245754246,-2.179761904761905,-0.35
65,18.840926226551225,-0.35416666666666663,-0.15
67,16.54025793650794,-2.391666666666666,0.12
59,16.07078689998727,-2.378940972222222,0.68
60,17.928731737012985,-2.858928571428572,-0.56
52,14.982640219155844,-0.8583333333333334,-0.20
35,15.074099927849932,-1.2947916666666668,0.40
37,13.648869047619048,-1.2968749999999998,0.25
33,9.790422077922079,-1.3322222222222222,-0.46
51,12.450852682670863,-0.4375,0.80
39,10.19382178932179,-0.2916666666666667,-0.16
36,15.185814844877346,-1.1291666666666667,0.90
41,11.494766594516596,-0.425,-0.33
45,14.702700216450218,-0.24166666666666667,-0.25
32,12.412310606060606,-0.8313492063492063,0.09
27,10.31748015873016,-1.4583333333333335,0.24
35,11.594849927849928,-1.29375,-1.31
57,16.83996392496393,-0.8902777777777778,-0.40
44,17.51761273448773,-2.4416666666666664,0.40
91,28.824303300865807,-1.1964285714285716,-0.09
67,23.619039502164505,-1.3275126262626264,0.09
44,14.584431457431458,-1.6609920634920634,0.03
62,21.630778769841275,-1.4538293650793652,0.42
42,11.821782708032709,-0.61,-6.04
64,15.747686387686388,-2.2125473484848484,-3.37
43,15.438538961038962,-2.0127383207070713,-0.43
51,19.45102453102453,-3.348484848484849,-0.03
47,15.096286976911982,-3.5390625,-2.67
67,12.579888167388166,-1.2194444444444446,2.52
62,11.06205681818182,-0.4915,-0.97
48,13.92210678210678,-1.2229166666666667,-0.08
30,9.243679653679655,-1.7761363636363636,-1.32
32,8.389742063492063,-0.8121212121212121,-0.06
41,11.906019317054474,-0.36249999999999993,-4.96
57,16.21401875901876,-0.6666666666666666,0.18
44,13.537066197691198,-0.5484848484848485,0.78
32,9.214493094207379,-0.6694444444444444,-1.01
41,11.479662923881675,-0.5458333333333334,-0.08
46,14.334659090909089,-1.2937500000000002,0.21
41,13.452554885590601,-1.4513888888888888,1.55
30,12.736724025974027,-1.2808830492424241,-0.20
59,19.16269480519481,-0.7625,-0.47
45,16.669342712842717,-2.06969696969697,0.22
60,17.86673240339907,-0.8291666666666667,1.41
86,28.681120911495917,-1.9064236111111112,1.38
92,28.984826388888898,-1.8048809523809526,20.0
74,27.675623737373733,-2.12810582010582,0.09
53,15.944962121212125,-1.8212752525252525,2.42
41,17.61445155208548,-2.1437500000000003,-0.70
56,19.245358225108223,-1.7563973063973064,-0.65
50,26.58686817580568,-1.4080952380952383,0.37
39,15.648041847041847,-1.7834722222222221,-0.60
31,11.81458658008658,-1.1,0.18
61,19.208127976190475,-1.1125,1.25
45,14.928748647186147,-0.7916666666666666,5.99
19,7.9505050505050505,-2.8032963564213564,-3.00
5,2.4815151515151515,-0.05,-0.78
2,0.85,-0.05,-1.85
4,0.26597222222222217,0,-0.42
2,0.03888888888888889,0,-0.90
4,0.705,0,1.07
0,0,0,0.94
-2,0.10714285714285714,-0.55,-0.87
1,0.175,-0.5,0.36
5,0.7752551020408163,-0.5,0.66
5,1.125,0,-0.09
7,0.6592261904761905,0,-1.55
4,0.6161818181818182,-0.1,0.12
4,0.6555555555555556,0,1.32
4,0.22035714285714286,0,-3.31
4,0.78125,0,1.46
3,0.43333333333333335,-0.2,-2.01
4,0.89,-0.4,1.12
2,0.29999999999999993,-0.125,2.05
8,1.4858901515151517,-0.125,1.43
2,0.7730429292929293,-0.3,-2.19
2,0.6,0,0.45
2,0.5380952380952381,0,-0.28
4,0.7571428571428571,0,0.34
-1,0,-0.2916666666666667,0.15
0,0,0,-0.25
5,1.575,0,0.32
2,0.12875,0,0.89
6,0.5523827561327561,0,0.79
2,0.175,0,-0.63
6,1.6666666666666667,-0.2222222222222222,0.36
6,1.0833333333333335,0,0.17
0,0,0,-0.28
6,1.0345658263305322,0,0.52
4,0.3825,0,0.40
2,0.5,0,-0.14
12,3.1795112781954886,-0.4,-1.30
2,0.06,0,0.43
6,0.5071428571428571,0,1.00
4,0.8,0,-0.08
0,0,0,0.70
2,1.2858333333333334,-0.3555555555555556,-0.18
0,0,0,-0.10
2,0.5587301587301587,-0.3125,-0.21
0,0,0,-0.81
4,0.7740740740740741,0,-0.02
1,0.73125,-0.25,0.87
-4,0,-0.17708333333333334,0.32
2,0.15714285714285714,0,-0.58
2,0.2333333333333333,0,0.01
0,0.2975,-0.625,-0.03
2,0.5,0,-0.75
4,0.3125,0,0.30
0,0.1488888888888889,-0.03333333333333333,-1.83
3,1.6416666666666666,-0.3125,-0.14
6,0.29439935064935063,0,0.13
43,13.968636363636362,-1.3354166666666667,0.03
77,24.51803751803752,-1.8076010101010103,-0.55
58,19.845530303030305,-3.3916666666666666,0.24
58,18.35867003367003,-2.5273232323232326,-1.50
68,23.587635882635887,-3.074942505411255,2.02
70,24.739525613275617,-1.3777777777777778,0.30
37,15.341709956709952,-1.6656565656565656,0.49
36,17.668118686868684,-4.909384818535763,-0.38
71,24.393196248196254,-1.8623737373737377,0.96
61,22.62568078549795,-3.5103125,0.69
49,17.579749694749697,-2.9813888888888886,6.09
48,14.592217261904763,-3.904734848484848,-1.94
41,15.46464736652237,-2.946064814814815,-0.93
28,10.191050324675325,-2.0133838383838385,-2.76
32,9.147375927643784,-1.096875,-1.41
21,8.475133477633479,-2.35875,-0.81
43,12.011511994949498,-0.5866666666666667,1.50
30,11.540021645021644,-1.7915404040404044,-0.46
40,12.013023504273507,-0.8083333333333333,-0.28
41,11.050905483405485,-0.6930555555555556,-0.43
38,14.104054608585859,-1.8245370370370368,1.21
33,14.897563807720058,-1.6092261904761906,0.06
46,19.822768834175083,-2.351659451659452,-1.47
35,15.419953102453103,-2.614547084859585,0.55
76,22.643714240620486,-3.001136363636364,-0.34
51,18.653487554112555,-1.5892795138888889,-0.34
56,18.39874933862434,-2.963251201923078,0.21
70,22.690309268278014,-2.7838062545093796,0.24
74,28.88090264249639,-3.653021284271284,-0.41
87,30.473641654641643,-3.2022321428571434,-0.18
58,21.36049025974026,-4.471085858585856,0.80
67,26.01575315656566,-2.642013888888889,0.68
83,30.178819444444443,-2.8178968253968253,-1.00
66,28.852968930375177,-6.090653409090909,0.42
64,26.183457702020203,-6.128427128427129,0.56
46,19.44955808080808,-4.676319444444444,-0.12
41,13.639976663961042,-2.020779220779221,0.44
36,13.669924242424242,-2.3860119047619053,0.18
38,10.007578192640693,-1.027777777777778,-0.54
42,11.272563131313131,-0.8159090909090909,0.01
39,13.815210374420902,-2.316666666666667,0.03
18,10.184955110536166,-2.844242854042659,-0.62
25,7.970177970177971,-1.617878787878788,0.06
43,14.733169191919195,-1.7305555555555558,-0.07
63,17.83585167147667,-1.80490845959596,0.32
56,17.228694083694087,-2.2244047619047618,0.25
43,18.275425685425684,-3.4369696969696975,-0.18
55,16.04595433931148,-1.7333333333333336,-0.18
71,21.51054256854257,-1.8250000000000002,0.23
79,25.33461471861472,-2.31010101010101,0.22
54,18.439727633477634,-2.822916666666667,0.00
67,20.85156122234247,-2.8861034798534804,-0.09
84,25.367886315073825,-2.2221620971620974,-0.16
72,22.952620127991224,-1.9652146464646465,-0.12
92,31.133371524309027,-1.274031746031746,-0.86
54,22.513418481691918,-5.0120030663780675,-0.43
66,22.640162082130843,-0.9834595959595959,0.31
39,17.94896819384319,-2.538361291486292,0.26
18,17.685305735930744,-6.419561688311688,0.31
44,10.431183132343845,-1.6609848484848484,-0.34
30,11.121993746993748,-1.8619023569023572,0.88
44,12.063991702741703,-1.9416666666666667,0.58
20,10.909934764309767,-1.5774305555555554,-0.46
38,11.791087662337661,-0.45348484848484855,0.02
30,10.522693173228888,-0.76,0.17
31,7.980294011544012,-0.6666666666666666,0.18
18,6.793749999999999,-0.4666666666666667,0.51
25,8.088350340136055,-1.0499999999999998,0.65
47,14.756468855218856,-0.8329229797979798,0.06
11,6.619204545454545,-2.5222222222222226,1.41
28,10.130753968253968,-1.3469696969696972,-0.06
32,9.713528138528138,-0.36160714285714285,0.43
52,14.835454545454551,-1.1333333333333333,-0.78
39,15.953883477633482,-0.9434253246753248,-0.84
63,19.874905077561326,-0.6934343434343435,0.37
56,20.393461708925987,-0.8583333333333334,0.62
58,20.856686147186146,-2.3439393939393938,-0.13
53,16.796519360269357,-1.512121212121212,0.87
33,15.982135952155485,-2.369606782106782,0.44
38,13.700208333333336,-2.1445833333333333,0.81
61,22.473150793650795,-3.644258658008658,-0.71
44,15.850569985569988,-3.5550450937950937,-1.29
43,13.788573457792207,-1.6222943722943723,0.41
35,10.345665584415586,-0.2912698412698413,-0.48
35,10.523814162028447,-0.3772727272727273,0.86
16,8.047943722943723,-1.7149200336700336,-0.62
18,9.175622294372294,-1.3267316017316018,-1.47
18,6.124242424242424,-0.4000000000000001,0.37
31,10.198214285714286,-0.3373737373737374,0.42
23,7.706796536796537,-0.8078869047619048,0.06
25,10.604938143338146,-1.4169949494949496,0.08
15,9.45462481962482,-1.072734375,-0.25
30,11.878944805194807,-0.37537878787878787,0.09
31,11.107045454545457,-0.625,-0.23
36,14.536436868686868,-1.0582070707070708,0.25
37,14.314830447330447,-0.33333333333333337,-0.06
99,16.877946428571423,-1.0,-0.14
85,20.03075757575757,-0.4,0.25
42,19.663064574314575,-1.1540259740259737,0.09
64,20.49623917748918,-2.2751587301587297,0.84
53,22.526344246031755,-1.6673412698412697,0.58
58,21.520561958874463,-0.6708333333333333,0.75
42,13.734472402597403,-2.019498556998557,-0.28
50,19.204843338850694,-2.256011904761905,0.10
65,20.564420431998553,-0.917261904761905,0.09
79,26.793622835497843,-0.8426406926406926,0.40
56,18.8768575261544,-1.6555555555555557,-0.51
53,15.851180104617605,-2.4874007936507936,0.32
32,13.977279220779222,-2.4638888888888895,0.33
33,10.99534932659933,-0.7101851851851853,0.66
29,9.631554383116883,-0.4440972222222222,-0.20
23,6.70130772005772,-1.3454545454545452,0.25
3,1.625,0,1.35
0,0,0,0.22
2,0.32329545454545455,0,1.18
2,0.8,0,0.04
2,0.2,0,-0.12
-2,0,-0.5,0.53
0,0.6,-0.2833333333333333,0.82
1,0.07142857142857141,-0.02142857142857143,1.03
6,1.12425645342312,-0.012499999999999997,0.57
-3,0,-0.3125,-0.32
7,1.155654761904762,0,0.29
6,1.1091666666666666,0,-0.79
1,0.37285714285714283,-0.08611111111111112,-0.68
-2,0,-0.14375,0.15
4,0.32575757575757575,0,0.00
0,0,0,-0.14
4,0.22746031746031747,0,0.53
2,0.5,0,-0.09
2,0.14259259259259258,0,-0.85
4,0.5943627450980392,-0.1,0.34
0,0,0,0.64
2,0.5,0,-0.39
0,0,0,-0.15
0,0,0,0.37
4,0.603125,0,0.20
3,0.645,0,-0.38
4,0.26636054421768707,0,-0.60
0,0,0,0.23
4,0.7775000000000001,0,-0.46
2,0.10476190476190476,0,-0.84
2,0.3689763488543977,-0.25,-1.14
4,0.41000000000000003,0,0.39
0,0.36726190476190473,-0.15555555555555559,0.31
2,0.3625,0,-0.31
0,0,0,-6.02
2,0.25,0,1.23
0,0,0,-0.43
4,0.32547928262213977,0,-1.87
0,0,0,0.52
-2,0,-0.15555555555555559,-0.75
0,0,0,1.06
0,0.875,-0.003174603174603184,0.09
1,0.19,0,0.11
62,20.225528612012987,-1.0145089285714286,-1.17
70,19.156155303030303,-3.3823412698412696,0.85
58,24.787817460317456,-1.8477182539682542,0.36
74,23.507194264069263,-1.636111111111111,-0.50
64,26.29215909090909,-2.484469696969697,0.66
106,31.777411616161615,-0.5333333333333333,-0.06
84,33.238892496392516,-2.424444444444444,-0.15
68,23.361778499278504,-1.4166666666666667,-1.59
64,30.22497835497835,-4.983333333333335,-0.10
110,36.78910173160173,-2.9553030303030305,0.59
101,38.48360966810966,-4.505303030303032,-1.07
148,46.92115440115439,-6.513636363636364,0.15
161,36.90980158730159,-2.854608585858586,-1.34
130,42.17302128427127,-2.980858585858586,1.03
206,62.54045809283302,-4.4701298701298695,0.75
183,59.66319071669073,-2.085714285714286,0.34
136,38.05165584415584,-1.8529166666666672,-1.22
136,49.36334253246754,-5.503503193960514,0.08
110,41.52560185185184,-5.188888888888889,0.79
90,33.4353143037518,-6.3983585858585865,-0.01
126,46.258018578643565,-7.922294372294374,0.11
148,41.98904040404042,-4.702777777777778,0.52
117,33.31470177970178,-0.7666666666666666,-0.58
66,26.07231962481963,-1.4740922619047618,-0.64
60,24.299564574314573,-2.7209054834054838,0.19
98,27.036233766233774,-3.1020833333333333,-0.87
84,24.385770382395386,-0.03333333333333333,-0.08
118,34.210533008658004,-3.1277777777777778,-0.27
74,20.936042568542565,-1.7055555555555557,-0.28
78,21.102761437908494,-1.7000000000000004,-0.43
108,25.641118326118313,-0.06363636363636366,1.66
86,30.74052597402598,-1.5231481481481484,-0.07
124,33.72246753246754,-1.2125,-0.06
110,34.96594246031746,-1.5944444444444443,0.76
130,39.083571428571425,-3.391666666666667,0.27
94,33.68636363636364,-4.574999999999999,0.52
156,45.05918975468976,-0.8757575757575758,-0.28
174,56.55992897727272,-4.059189551767678,-0.94
176,58.0976807359307,-2.2469444444444444,0.44
156,54.50452561327562,-5.218350168350169,-0.40
132,42.245672799422785,-3.1833333333333336,0.71
214,68.81430275974024,-3.611111111111111,-0.63
106,34.19776875901876,-4.9132996632996635,0.38
189,49.126850649350594,-2.3746615791615793,-0.37
86,45.656242784992756,-11.325000000000005,0.03
152,44.992265512265504,-5.036414141414142,-0.18
118,32.700015632515615,-4.634166666666667,-0.15
81,24.972113997113997,-1.4630952380952382,0.42
86,21.0268235930736,-0.8852380952380953,0.54
76,19.676053391053394,-2.625,-0.03
64,24.548907828282836,-0.831818181818182,0.76
72,20.804371572871574,-2.497222222222222,-0.23
81,27.771738816738814,-2.286111111111111,0.50
63,25.041891414141414,-1.8398268398268403,-0.75
97,30.69808667027418,-2.3908333333333336,-0.32
76,25.627734487734493,-3.3767361111111107,0.13
74,19.11505591630592,-2.0805555555555557,0.89
87,21.3163465007215,-1.4666666666666666,-0.12
81,25.941635401635395,-2.1290193602693606,0.16
96,35.13124999999999,-2.3666666666666667,-0.78
109,31.30100601883498,-4.333333333333334,0.47
94,50.662520833333296,-18.501262626262626,-0.02
142,54.8454761904762,-6.146759259259258,-0.53
160,51.0352976190476,-3.582882395382396,-0.59
175,54.32733086358087,-4.940277777777778,0.25
206,57.5645608465608,-7.340714285714285,0.31
99,33.75666756854257,-4.511111111111112,0.02
148,55.54244769119768,-2.9681904761904763,0.12
120,31.376497113997118,-3.291666666666667,-1.47
148,44.738838985088954,-2.0395833333333333,0.16
94,37.79567099567099,-3.4047619047619047,1.84
96,23.506971139971142,-1.0833333333333335,3.39
57,18.226799628942487,-1.9272727272727275,-0.61
90,24.780043290043295,-3.944439935064934,-0.59
90,22.070980940355945,-0.2566666666666667,-0.18
80,26.206583694083687,-1.0,-0.29
132,44.236101866883104,-0.7673696145124715,0.19
63,22.303095238095235,-1.7583333333333335,-0.03
86,31.10947619047619,-0.4636363636363636,-0.62
86,32.5860477842741,-1.3816666666666668,-2.24
108,38.79801381158522,-1.1195959595959597,0.51
86,25.040367965367967,-2.9298363095238096,-0.57
82,26.196040043290047,-1.835,-0.15
118,34.26503896103896,-3.5364583333333335,0.53
120,38.13495562770562,-3.8916666666666675,-0.26
140,58.70654978354978,-6.05238095238095,-0.59
106,33.1194871847729,-0.7416666666666667,1.10
149,48.15784652182922,-2.3611111111111116,-0.90
120,36.291156204906194,-4.296969696969697,0.37
162,49.35642807539684,-3.3226190476190474,1.06
110,35.34382766439909,-3.0999999999999996,-0.12
144,36.28698097041847,-2.0290476190476188,-0.59
62,22.78132323232324,-0.7142857142857144,-0.09
112,31.401995400432906,-4.183333333333334,0.40
92,25.186666666666675,-2.0875,0.15
71,25.39714105339105,-2.3303030303030305,-0.21
104,26.996228594941766,-1.3603606549700302,-0.40
62,20.224778138528137,-2.0900793650793656,0.07
58,15.36287878787879,-0.5,-0.17
78,29.577067821067825,-2.8357142857142863,0.62
86,34.8085236985237,-0.7428571428571428,0.06
56,17.65142857142857,0,0.30
50,22.211474567099568,-3.1552813852813855,0.10
54,24.200033369408377,-2.288888888888889,0.86
70,19.801067821067818,-1.215277777777778,0.21
78,28.164103084415594,-1.235858585858586,-0.43
90,27.027601010101012,-1.4141702779202778,0.31
66,23.770992063492066,-2.0287157287157287,-0.18
76,22.66160052910053,-1.2553030303030304,-0.10
100,33.727855339105325,-4.128219696969697,-0.16
220,58.258409090909055,-1.4876623376623377,0.59
134,48.83709956709954,-1.3601641414141414,-0.83
148,53.13190476190474,-2.0972222222222223,0.29
174,52.32008477633474,-4.2830808080808085,0.33
142,43.70438401875902,-2.9625,-0.17
96,27.213308080808083,-0.9136363636363636,0.54
82,31.278250360750363,-3.7333333333333334,0.01
98,31.460909090909094,-1.509469696969697,-0.72
62,18.95054112554113,-1.9444444444444444,-0.39
96,25.663668831168824,-2.191666666666667,-0.50
72,19.79979437229437,-0.4270833333333333,0.92
68,20.25896464646465,-0.3214285714285714,-0.27
-4,0,-0.2,-0.95
4,0.8,0,0.03
4,0.42857142857142855,0,0.00
0,0.7,-0.45,-0.28
2,0.21212121212121213,0,0.35
-2,0,-0.004797979797979808,-0.50
2,0.04999999999999999,0,0.35
0,0,0,0.62
4,1.2583333333333333,-0.2,0.17
2,1.0,-0.665625,-0.35
10,1.85,-0.1499999999999999,-0.71
2,1.48,-0.5,0.15
12,1.2209523809523808,-0.037037037037037056,0.46
10,3.62875,-0.4,-0.28
-8,0.5336898395721925,-0.9458994708994708,0.46
4,0.4,0,-0.09
8,1.48,0,-0.13
-4,1.6,-0.22499999999999998,-0.05
8,1.2794372294372294,0,-0.03
-4,0,-0.7976190476190476,0.57
4,1.2420454545454545,-1.3,-0.39
12,0.8792207792207792,0,-0.04
8,1.439855072463768,0,-0.35
0,0,0,-0.13
8,0.9075757575757575,0,0.02
6,2.6814814814814816,-0.2583333333333333,0.38
12,2.8030303030303028,-0.25785714285714284,-0.22
4,0.5619047619047619,-0.3,0.23
16,5.060985449735449,-0.1,0.02
20,2.3655753968253967,0,0.42
12,1.0833333333333335,0,-0.37
12,2.54,0,0.04
0,0,0,-0.21
28,3.6887878787878785,0,0.44
11,1.0684249002631354,0,-0.19
6,0.8999999999999999,-0.4,-0.08
18,4.425787878787878,-0.11517857142857144,-0.15
8,1.0187499999999998,0,-0.21
4,1.06,0,-0.58
0,0.8333333333333334,-1.0,0.37
4,0.65,0,0.07
4,0.6500000000000001,0,-0.01
0,0.2727272727272727,-1.5,-1.03
0,0,0,-0.29
4,1.8,0,0.43
4,1.6,0,-0.09
4,1.2,0,-0.12
4,0.13636363636363635,0,0.10
4,1.0,0,0.12
12,2.4916666666666667,0,-0.21
4,0.5,0,-0.18
6,0.5613636363636363,-0.2,-1.12
3,2.788738738738739,-0.8999999999999999,0.28
0,1.6155844155844157,-2.1833333333333336,-0.11
14,1.4349999999999998,0,-0.60
8,0.49863945578231295,0,-1.55
8,2.1023809523809525,0,0.14
14,2.1425,-0.4,-0.46
4,0.5,0,0.28
2,0.33333333333333337,0,-0.25
6,0.37000000000000005,0,0.37
2,0.7200000000000001,-0.13888888888888887,0.31
-4,0,-0.10000000000000002,0.46
0,0,0,-0.86
8,1.419047619047619,0,-1.31
4,1.2,0,0.27
4,0.8,0,-3.79
4,0.22333333333333333,0,0.49
6,1.9166666666666665,-0.3254464285714286,0.18
-4,0,-0.28008658008658005,-0.77
-4,0,-0.3,0.08
4,0.5,0,-0.18
4,1.6,0,2.88
-8,0,-0.7312500000000001,-0.83
8,1.7000000000000002,0,0.34
0,0,0,-0.68
4,0.75,0,0.01
4,0.2,0,0.40
0,0,0,0.40
12,1.7000000000000002,0,-0.28
4,0.4,0,-0.71
2,0.2125,0,-0.06
0,0,0,1.27
0,0,0,-0.33
1,0.041666666666666664,0,0.11
0,0,0,-0.58
0,0,0,-0.26
0,0,0,-0.06
2,1.3,0,0.37
0,0,0,-0.75
6,0.4222222222222222,0,0.08
2,0.06944444444444443,0,0.18
4,0.08,0,-0.29
6,2.1236742424242423,-0.15530303030303033,-0.37
-4,2.0,-0.65,-0.19
14,2.601048951048951,-0.08611111111111112,0.68
-4,0,-0.2,0.09
8,0.6,0,-0.18
2,0.1,0,-0.34
6,0.7602222222222221,-0.08333333333333333,-0.31
8,0.9417074592074592,0,0.25
-4,0.425,-0.5357142857142857,0.43
8,0.8833333333333333,0,0.23
8,1.5541666666666667,0,-1.44
8,2.45,0,-0.58
14,3.632916174734357,-1.0,-0.19
8,1.4051010101010102,0,0.62
8,1.43,0,0.30
4,0.875,0,3.13
2,2.022321428571429,-0.49324194324194315,-1.04
4,0.4793650793650794,0,0.03
