2019-02-10T00:00:00.0000000Z,118.060000,117.670000,0.39000000000000056843
2019-02-10T01:00:00.0000000Z,117.690000,117.850000,-0.15999999999999658939
2019-02-10T02:00:00.0000000Z,117.850000,117.990000,-0.14000000000000056843
2019-02-10T03:00:00.0000000Z,117.990000,117.830000,0.15999999999999658939
2019-02-10T04:00:00.0000000Z,117.860000,118.070000,-0.20999999999999374722
2019-02-10T05:00:00.0000000Z,118.060000,118.360000,-0.29999999999999715783
2019-02-10T06:00:00.0000000Z,118.360000,116.010000,2.34999999999999431566
2019-02-10T07:00:00.0000000Z,116.010000,116.100000,-0.08999999999998919975
2019-02-10T08:00:00.0000000Z,116.100000,115.980000,0.11999999999999033662
2019-02-10T09:00:00.0000000Z,115.980000,116.230000,-0.25000000000000000000
2019-02-10T10:00:00.0000000Z,116.230000,116.750000,-0.51999999999999602096
2019-02-10T11:00:00.0000000Z,116.750000,116.240000,0.51000000000000511591
2019-02-10T12:00:00.0000000Z,116.240000,116.040000,0.19999999999998863132
2019-02-10T13:00:00.0000000Z,116.040000,116.100000,-0.05999999999998806288
2019-02-10T14:00:00.0000000Z,116.100000,115.690000,0.40999999999999658939
2019-02-10T15:00:00.0000000Z,115.700000,115.830000,-0.12999999999999545253
2019-02-10T16:00:00.0000000Z,115.830000,117.420000,-1.59000000000000341061
2019-02-10T17:00:00.0000000Z,117.410000,117.190000,0.21999999999999886313
2019-02-10T18:00:00.0000000Z,117.190000,117.360000,-0.17000000000000170530
2019-02-10T19:00:00.0000000Z,117.350000,117.110000,0.23999999999999488409
2019-02-10T20:00:00.0000000Z,117.090000,117.060000,0.03000000000000113687
2019-02-10T21:00:00.0000000Z,117.070000,117.240000,-0.17000000000000170530
2019-02-10T22:00:00.0000000Z,117.240000,120.500000,-3.26000000000000511591
2019-02-10T23:00:00.0000000Z,120.500000,123.940000,-3.43999999999999772626
2019-02-11T00:00:00.0000000Z,123.930000,119.960000,3.97000000000001307399
2019-02-11T01:00:00.0000000Z,119.930000,119.860000,0.07000000000000738964
2019-02-11T02:00:00.0000000Z,119.860000,119.610000,0.25000000000000000000
2019-02-11T03:00:00.0000000Z,119.610000,119.300000,0.31000000000000227374
2019-02-11T04:00:00.0000000Z,119.290000,119.260000,0.03000000000000113687
2019-02-11T05:00:00.0000000Z,119.270000,118.440000,0.82999999999999829470
2019-02-11T06:00:00.0000000Z,118.440000,119.370000,-0.93000000000000682121
2019-02-11T07:00:00.0000000Z,119.370000,119.400000,-0.03000000000000113687
2019-02-11T08:00:00.0000000Z,119.370000,119.080000,0.29000000000000625278
2019-02-11T09:00:00.0000000Z,119.070000,119.350000,-0.28000000000000113687
2019-02-11T10:00:00.0000000Z,119.350000,119.110000,0.23999999999999488409
2019-02-11T11:00:00.0000000Z,119.090000,119.130000,-0.03999999999999204192
2019-02-11T12:00:00.0000000Z,119.130000,120.260000,-1.13000000000000966338
2019-02-11T13:00:00.0000000Z,120.260000,120.460000,-0.19999999999998863132
2019-02-11T14:00:00.0000000Z,120.480000,121.380000,-0.89999999999999147349
2019-02-11T15:00:00.0000000Z,121.380000,119.980000,1.39999999999999147349
2019-02-11T16:00:00.0000000Z,119.940000,119.320000,0.62000000000000454747
2019-02-11T17:00:00.0000000Z,119.320000,120.440000,-1.12000000000000454747
2019-02-11T18:00:00.0000000Z,120.370000,120.030000,0.34000000000000341061
2019-02-11T19:00:00.0000000Z,120.030000,120.200000,-0.17000000000000170530
2019-02-11T20:00:00.0000000Z,120.190000,120.330000,-0.14000000000000056843
2019-02-11T21:00:00.0000000Z,120.310000,119.580000,0.73000000000000397904
2019-02-11T22:00:00.0000000Z,119.440000,119.950000,-0.51000000000000511591
2019-02-11T23:00:00.0000000Z,119.950000,119.550000,0.40000000000000568434
2019-02-12T00:00:00.0000000Z,119.570000,118.020000,1.54999999999999715783
2019-02-12T01:00:00.0000000Z,118.020000,118.180000,-0.16000000000001080025
2019-02-12T02:00:00.0000000Z,118.190000,118.180000,0.00999999999999090505
2019-02-12T03:00:00.0000000Z,118.190000,119.100000,-0.90999999999999658939
2019-02-12T04:00:00.0000000Z,119.110000,119.350000,-0.23999999999999488409
2019-02-12T05:00:00.0000000Z,119.350000,119.300000,0.04999999999999715783
2019-02-12T06:00:00.0000000Z,119.310000,119.580000,-0.26999999999999602096
2019-02-12T07:00:00.0000000Z,119.580000,119.670000,-0.09000000000000341061
2019-02-12T08:00:00.0000000Z,119.670000,118.960000,0.71000000000000795808
2019-02-12T09:00:00.0000000Z,118.960000,118.780000,0.17999999999999261036
2019-02-12T10:00:00.0000000Z,118.750000,118.810000,-0.06000000000000227374
2019-02-12T11:00:00.0000000Z,118.870000,119.140000,-0.26999999999999602096
2019-02-12T12:00:00.0000000Z,119.170000,119.730000,-0.56000000000000227374
2019-02-12T13:00:00.0000000Z,119.730000,119.330000,0.40000000000000568434
2019-02-12T14:00:00.0000000Z,119.320000,118.810000,0.50999999999999090505
2019-02-12T15:00:00.0000000Z,118.800000,118.500000,0.29999999999999715783
2019-02-12T16:00:00.0000000Z,118.500000,118.880000,-0.37999999999999545253
2019-02-12T17:00:00.0000000Z,118.880000,119.050000,-0.17000000000000170530
2019-02-12T18:00:00.0000000Z,119.050000,120.650000,-1.60000000000000852651
2019-02-12T19:00:00.0000000Z,120.650000,121.150000,-0.50000000000000000000
2019-02-12T20:00:00.0000000Z,121.150000,122.010000,-0.85999999999999943157
2019-02-12T21:00:00.0000000Z,122.010000,119.700000,2.31000000000000227374
2019-02-12T22:00:00.0000000Z,119.710000,120.260000,-0.55000000000001136868
2019-02-12T23:00:00.0000000Z,120.250000,120.820000,-0.56999999999999317879
2019-02-13T00:00:00.0000000Z,120.810000,121.300000,-0.48999999999999488409
2019-02-13T01:00:00.0000000Z,121.300000,121.010000,0.28999999999999204192
2019-02-13T02:00:00.0000000Z,121.010000,121.610000,-0.59999999999999431566
2019-02-13T03:00:00.0000000Z,121.570000,122.110000,-0.54000000000000625278
2019-02-13T04:00:00.0000000Z,122.080000,121.790000,0.28999999999999204192
2019-02-13T05:00:00.0000000Z,121.710000,122.500000,-0.79000000000000625278
2019-02-13T06:00:00.0000000Z,122.500000,123.180000,-0.68000000000000682121
2019-02-13T07:00:00.0000000Z,123.100000,122.270000,0.82999999999999829470
2019-02-13T08:00:00.0000000Z,122.270000,121.660000,0.60999999999999943157
2019-02-13T09:00:00.0000000Z,121.650000,121.730000,-0.07999999999999829470
2019-02-13T10:00:00.0000000Z,121.730000,121.690000,0.04000000000000625278
2019-02-13T11:00:00.0000000Z,121.690000,121.590000,0.09999999999999431566
2019-02-13T12:00:00.0000000Z,121.580000,121.810000,-0.23000000000000397904
2019-02-13T13:00:00.0000000Z,121.820000,121.630000,0.18999999999999772626
2019-02-13T14:00:00.0000000Z,121.630000,120.770000,0.85999999999999943157
2019-02-13T15:00:00.0000000Z,120.780000,119.850000,0.93000000000000682121
2019-02-13T16:00:00.0000000Z,119.790000,120.730000,-0.93999999999999772626
2019-02-13T17:00:00.0000000Z,120.720000,120.510000,0.20999999999999374722
2019-02-13T18:00:00.0000000Z,120.500000,120.630000,-0.12999999999999545253
2019-02-13T19:00:00.0000000Z,120.620000,120.000000,0.62000000000000454747
2019-02-13T20:00:00.0000000Z,119.990000,120.170000,-0.18000000000000682121
2019-02-13T21:00:00.0000000Z,120.180000,120.620000,-0.43999999999999772626
2019-02-13T22:00:00.0000000Z,120.600000,120.550000,0.04999999999999715783
2019-02-13T23:00:00.0000000Z,120.550000,120.740000,-0.18999999999999772626
2019-02-14T00:00:00.0000000Z,120.740000,122.400000,-1.66000000000001080025
2019-02-14T01:00:00.0000000Z,122.410000,122.190000,0.21999999999999886313
2019-02-14T02:00:00.0000000Z,122.150000,121.770000,0.38000000000000966338
2019-02-14T03:00:00.0000000Z,121.780000,121.910000,-0.12999999999999545253
2019-02-14T04:00:00.0000000Z,121.900000,122.800000,-0.89999999999999147349
2019-02-14T05:00:00.0000000Z,122.810000,120.660000,2.15000000000000568434
2019-02-14T06:00:00.0000000Z,120.670000,121.030000,-0.35999999999999943157
2019-02-14T07:00:00.0000000Z,121.090000,120.430000,0.65999999999999658939
2019-02-14T08:00:00.0000000Z,120.420000,120.600000,-0.17999999999999261036
2019-02-14T09:00:00.0000000Z,120.610000,120.770000,-0.15999999999999658939
2019-02-14T10:00:00.0000000Z,120.770000,120.190000,0.57999999999999829470
2019-02-14T11:00:00.0000000Z,120.160000,119.610000,0.54999999999999715783
2019-02-14T12:00:00.0000000Z,119.610000,119.960000,-0.34999999999999431566
2019-02-14T13:00:00.0000000Z,119.970000,120.340000,-0.37000000000000454747
2019-02-14T14:00:00.0000000Z,120.340000,120.130000,0.21000000000000795808
2019-02-14T15:00:00.0000000Z,120.160000,120.920000,-0.76000000000000511591
2019-02-14T16:00:00.0000000Z,121.000000,120.640000,0.35999999999999943157
2019-02-14T17:00:00.0000000Z,120.630000,120.560000,0.06999999999999317879
2019-02-14T18:00:00.0000000Z,120.570000,120.690000,-0.12000000000000454747
2019-02-14T19:00:00.0000000Z,120.690000,120.460000,0.23000000000000397904
2019-02-14T20:00:00.0000000Z,120.460000,120.040000,0.41999999999998749445
2019-02-14T21:00:00.0000000Z,120.040000,120.470000,-0.42999999999999261036
2019-02-14T22:00:00.0000000Z,120.420000,120.070000,0.35000000000000852651
2019-02-14T23:00:00.0000000Z,120.070000,119.390000,0.67999999999999261036
2019-02-15T00:00:00.0000000Z,119.390000,119.700000,-0.31000000000000227374
2019-02-15T01:00:00.0000000Z,119.690000,119.910000,-0.21999999999999886313
2019-02-15T02:00:00.0000000Z,119.950000,120.150000,-0.20000000000000284217
2019-02-15T03:00:00.0000000Z,120.160000,120.550000,-0.39000000000000056843
2019-02-15T04:00:00.0000000Z,120.550000,121.250000,-0.70000000000000284217
2019-02-15T05:00:00.0000000Z,121.250000,121.090000,0.15999999999999658939
2019-02-15T06:00:00.0000000Z,121.080000,121.430000,-0.35000000000000852651
2019-02-15T07:00:00.0000000Z,121.430000,121.300000,0.13000000000000966338
2019-02-15T08:00:00.0000000Z,121.290000,121.210000,0.08000000000001250555
2019-02-15T09:00:00.0000000Z,121.200000,120.950000,0.25000000000000000000
2019-02-15T10:00:00.0000000Z,120.960000,121.350000,-0.39000000000000056843
2019-02-15T11:00:00.0000000Z,121.340000,120.810000,0.53000000000000113687
2019-02-15T12:00:00.0000000Z,120.890000,121.160000,-0.26999999999999602096
2019-02-15T13:00:00.0000000Z,121.170000,121.670000,-0.50000000000000000000
2019-02-15T14:00:00.0000000Z,121.670000,119.970000,1.70000000000000284217
2019-02-15T15:00:00.0000000Z,119.970000,120.200000,-0.23000000000000397904
2019-02-15T16:00:00.0000000Z,120.200000,120.250000,-0.04999999999999715783
2019-02-15T17:00:00.0000000Z,120.250000,120.130000,0.12000000000000454747
2019-02-15T18:00:00.0000000Z,120.120000,120.340000,-0.21999999999999886313
2019-02-15T19:00:00.0000000Z,120.340000,120.200000,0.14000000000000056843
2019-02-15T20:00:00.0000000Z,120.200000,120.160000,0.04000000000000625278
2019-02-15T21:00:00.0000000Z,120.200000,120.420000,-0.21999999999999886313
2019-02-15T22:00:00.0000000Z,120.420000,120.370000,0.04999999999999715783
2019-02-15T23:00:00.0000000Z,120.360000,120.420000,-0.06000000000000227374
2019-02-16T00:00:00.0000000Z,120.420000,120.770000,-0.34999999999999431566
2019-02-16T01:00:00.0000000Z,120.770000,120.720000,0.04999999999999715783
2019-02-16T02:00:00.0000000Z,120.710000,121.010000,-0.30000000000001136868
2019-02-16T03:00:00.0000000Z,121.010000,121.170000,-0.15999999999999658939
2019-02-16T04:00:00.0000000Z,121.170000,121.240000,-0.06999999999999317879
2019-02-16T05:00:00.0000000Z,121.240000,121.180000,0.05999999999998806288
2019-02-16T06:00:00.0000000Z,121.170000,121.260000,-0.09000000000000341061
2019-02-16T07:00:00.0000000Z,121.270000,121.500000,-0.23000000000000397904
2019-02-16T08:00:00.0000000Z,121.500000,121.660000,-0.15999999999999658939
2019-02-16T09:00:00.0000000Z,121.660000,121.400000,0.25999999999999090505
2019-02-16T10:00:00.0000000Z,121.450000,121.340000,0.10999999999999943157
2019-02-16T11:00:00.0000000Z,121.330000,121.510000,-0.18000000000000682121
2019-02-16T12:00:00.0000000Z,121.520000,121.620000,-0.10000000000000852651
2019-02-16T13:00:00.0000000Z,121.620000,121.920000,-0.29999999999999715783
2019-02-16T14:00:00.0000000Z,121.910000,122.320000,-0.40999999999999658939
2019-02-16T15:00:00.0000000Z,122.320000,122.240000,0.07999999999999829470
2019-02-16T16:00:00.0000000Z,122.240000,122.210000,0.03000000000000113687
2019-02-16T17:00:00.0000000Z,122.210000,121.800000,0.40999999999999658939
2019-02-16T18:00:00.0000000Z,121.800000,121.690000,0.10999999999999943157
2019-02-16T19:00:00.0000000Z,121.690000,122.070000,-0.37999999999999545253
2019-02-16T20:00:00.0000000Z,122.030000,122.590000,-0.56000000000000227374
2019-02-16T21:00:00.0000000Z,122.600000,122.300000,0.29999999999999715783
2019-02-16T22:00:00.0000000Z,122.300000,122.340000,-0.04000000000000625278
2019-02-16T23:00:00.0000000Z,122.330000,121.560000,0.76999999999999602096
2019-02-17T00:00:00.0000000Z,121.550000,121.600000,-0.04999999999999715783
2019-02-17T01:00:00.0000000Z,121.690000,121.690000,0.00000000000000000000
2019-02-17T02:00:00.0000000Z,121.690000,121.910000,-0.21999999999999886313
2019-02-17T03:00:00.0000000Z,121.880000,121.970000,-0.09000000000000341061
2019-02-17T04:00:00.0000000Z,121.980000,122.220000,-0.23999999999999488409
2019-02-17T05:00:00.0000000Z,122.220000,122.430000,-0.21000000000000795808
2019-02-17T06:00:00.0000000Z,122.450000,122.390000,0.06000000000000227374
2019-02-17T07:00:00.0000000Z,122.400000,122.850000,-0.44999999999998863132
2019-02-17T08:00:00.0000000Z,122.820000,122.890000,-0.07000000000000738964
2019-02-17T09:00:00.0000000Z,122.890000,123.150000,-0.26000000000000511591
2019-02-17T10:00:00.0000000Z,123.150000,125.420000,-2.26999999999999602096
2019-02-17T11:00:00.0000000Z,125.420000,125.510000,-0.09000000000000341061
2019-02-17T12:00:00.0000000Z,125.460000,123.410000,2.04999999999999715783
2019-02-17T13:00:00.0000000Z,123.450000,123.980000,-0.53000000000000113687
2019-02-17T14:00:00.0000000Z,124.000000,124.860000,-0.85999999999999943157
2019-02-17T15:00:00.0000000Z,124.850000,124.210000,0.64000000000000056843
2019-02-17T16:00:00.0000000Z,124.220000,125.100000,-0.87999999999999545253
2019-02-17T17:00:00.0000000Z,125.100000,126.490000,-1.39000000000000056843
2019-02-17T18:00:00.0000000Z,126.490000,125.900000,0.58999999999998919975
2019-02-17T19:00:00.0000000Z,125.890000,127.140000,-1.25000000000000000000
2019-02-17T20:00:00.0000000Z,127.140000,127.800000,-0.65999999999999658939
2019-02-17T21:00:00.0000000Z,127.780000,129.210000,-1.43000000000000682121
2019-02-17T22:00:00.0000000Z,129.210000,132.160000,-2.94999999999998863132
2019-02-17T23:00:00.0000000Z,132.140000,132.340000,-0.20000000000001705303
2019-02-18T00:00:00.0000000Z,132.330000,133.240000,-0.90999999999999658939
2019-02-18T01:00:00.0000000Z,133.220000,133.080000,0.13999999999998635758
2019-02-18T02:00:00.0000000Z,133.080000,135.490000,-2.40999999999999658939
2019-02-18T03:00:00.0000000Z,135.490000,136.740000,-1.25000000000000000000
2019-02-18T04:00:00.0000000Z,136.750000,135.690000,1.06000000000000227374
2019-02-18T05:00:00.0000000Z,135.640000,136.290000,-0.65000000000000568434
2019-02-18T06:00:00.0000000Z,136.280000,136.370000,-0.09000000000000341061
2019-02-18T07:00:00.0000000Z,136.370000,135.400000,0.96999999999999886313
2019-02-18T08:00:00.0000000Z,135.400000,135.900000,-0.50000000000000000000
2019-02-18T09:00:00.0000000Z,135.910000,137.460000,-1.55000000000001136868
2019-02-18T10:00:00.0000000Z,137.450000,136.680000,0.76999999999998181011
2019-02-18T11:00:00.0000000Z,136.660000,139.150000,-2.49000000000000909495
2019-02-18T12:00:00.0000000Z,139.190000,142.780000,-3.59000000000000341061
2019-02-18T13:00:00.0000000Z,142.780000,144.400000,-1.62000000000000454747
2019-02-18T14:00:00.0000000Z,144.410000,142.600000,1.81000000000000227374
2019-02-18T15:00:00.0000000Z,142.610000,143.500000,-0.88999999999998635758
2019-02-18T16:00:00.0000000Z,143.510000,144.250000,-0.74000000000000909495
2019-02-18T17:00:00.0000000Z,144.260000,144.430000,-0.17000000000001591616
2019-02-18T18:00:00.0000000Z,144.430000,145.150000,-0.71999999999999886313
2019-02-18T19:00:00.0000000Z,145.120000,144.130000,0.99000000000000909495
2019-02-18T20:00:00.0000000Z,144.150000,143.470000,0.68000000000000682121
2019-02-18T21:00:00.0000000Z,143.520000,141.140000,2.38000000000002387424
2019-02-18T22:00:00.0000000Z,141.140000,142.600000,-1.46000000000000795808
2019-02-18T23:00:00.0000000Z,142.620000,144.620000,-2.00000000000000000000
2019-02-19T00:00:00.0000000Z,144.580000,148.600000,-4.01999999999998181011
2019-02-19T01:00:00.0000000Z,148.620000,145.320000,3.30000000000001136868
2019-02-19T02:00:00.0000000Z,145.310000,144.590000,0.71999999999999886313
2019-02-19T03:00:00.0000000Z,144.590000,145.520000,-0.93000000000000682121
2019-02-19T04:00:00.0000000Z,145.510000,145.370000,0.13999999999998635758
2019-02-19T05:00:00.0000000Z,145.360000,145.480000,-0.11999999999997612576
2019-02-19T06:00:00.0000000Z,145.510000,145.970000,-0.46000000000000795808
2019-02-19T07:00:00.0000000Z,145.950000,147.400000,-1.45000000000001705303
2019-02-19T08:00:00.0000000Z,147.430000,146.600000,0.83000000000001250555
2019-02-19T09:00:00.0000000Z,146.580000,144.660000,1.92000000000001591616
2019-02-19T10:00:00.0000000Z,144.680000,145.030000,-0.34999999999999431566
2019-02-19T11:00:00.0000000Z,145.080000,145.240000,-0.15999999999999658939
2019-02-19T12:00:00.0000000Z,145.260000,146.280000,-1.02000000000001023182
2019-02-19T13:00:00.0000000Z,146.290000,147.090000,-0.80000000000001136868
2019-02-19T14:00:00.0000000Z,147.090000,146.090000,1.00000000000000000000
2019-02-19T15:00:00.0000000Z,146.090000,146.830000,-0.74000000000000909495
2019-02-19T16:00:00.0000000Z,146.820000,145.530000,1.28999999999999204192
2019-02-19T17:00:00.0000000Z,145.520000,145.620000,-0.09999999999999431566
2019-02-19T18:00:00.0000000Z,145.620000,144.830000,0.78999999999999204192
2019-02-19T19:00:00.0000000Z,144.820000,146.350000,-1.53000000000000113687
2019-02-19T20:00:00.0000000Z,146.350000,145.440000,0.90999999999999658939
2019-02-19T21:00:00.0000000Z,145.430000,143.100000,2.33000000000001250555
2019-02-19T22:00:00.0000000Z,143.030000,144.280000,-1.25000000000000000000
2019-02-19T23:00:00.0000000Z,144.280000,142.690000,1.59000000000000341061
2019-02-20T00:00:00.0000000Z,142.710000,141.100000,1.61000000000001364242
2019-02-20T01:00:00.0000000Z,141.100000,142.450000,-1.34999999999999431566
2019-02-20T02:00:00.0000000Z,142.450000,142.070000,0.37999999999999545253
2019-02-20T03:00:00.0000000Z,142.080000,141.460000,0.62000000000000454747
2019-02-20T04:00:00.0000000Z,141.450000,141.030000,0.41999999999998749445
2019-02-20T05:00:00.0000000Z,141.040000,140.720000,0.31999999999999317879
2019-02-20T06:00:00.0000000Z,140.730000,140.830000,-0.10000000000002273737
2019-02-20T07:00:00.0000000Z,140.830000,142.500000,-1.66999999999998749445
2019-02-20T08:00:00.0000000Z,142.490000,143.470000,-0.97999999999998976818
2019-02-20T09:00:00.0000000Z,143.470000,143.610000,-0.14000000000001477929
2019-02-20T10:00:00.0000000Z,143.610000,145.730000,-2.11999999999997612576
2019-02-20T11:00:00.0000000Z,145.750000,145.300000,0.44999999999998863132
2019-02-20T12:00:00.0000000Z,145.290000,146.890000,-1.59999999999999431566
2019-02-20T13:00:00.0000000Z,146.890000,145.480000,1.40999999999999658939
2019-02-20T14:00:00.0000000Z,145.470000,145.130000,0.34000000000000341061
2019-02-20T15:00:00.0000000Z,145.140000,144.440000,0.69999999999998863132
2019-02-20T16:00:00.0000000Z,144.420000,146.300000,-1.88000000000002387424
2019-02-20T17:00:00.0000000Z,146.300000,145.210000,1.09000000000000341061
2019-02-20T18:00:00.0000000Z,145.210000,145.170000,0.04000000000002046363
2019-02-20T19:00:00.0000000Z,145.180000,145.410000,-0.22999999999998976818
2019-02-20T20:00:00.0000000Z,145.410000,146.130000,-0.71999999999999886313
2019-02-20T21:00:00.0000000Z,146.130000,145.000000,1.12999999999999545253
2019-02-20T22:00:00.0000000Z,144.990000,145.720000,-0.72999999999998976818
2019-02-20T23:00:00.0000000Z,145.730000,147.190000,-1.46000000000000795808
2019-02-21T00:00:00.0000000Z,147.160000,146.020000,1.13999999999998635758
2019-02-21T01:00:00.0000000Z,145.980000,145.000000,0.97999999999998976818
2019-02-21T02:00:00.0000000Z,144.990000,145.270000,-0.28000000000000113687
2019-02-21T03:00:00.0000000Z,145.330000,147.130000,-1.79999999999998294697
2019-02-21T04:00:00.0000000Z,146.930000,146.080000,0.84999999999999431566
2019-02-21T05:00:00.0000000Z,146.080000,146.960000,-0.87999999999999545253
2019-02-21T06:00:00.0000000Z,147.020000,145.400000,1.62000000000000454747
2019-02-21T07:00:00.0000000Z,145.430000,146.320000,-0.88999999999998635758
2019-02-21T08:00:00.0000000Z,146.350000,143.870000,2.47999999999998976818
2019-02-21T09:00:00.0000000Z,143.870000,143.360000,0.50999999999999090505
2019-02-21T10:00:00.0000000Z,143.290000,143.060000,0.22999999999998976818
2019-02-21T11:00:00.0000000Z,143.030000,143.400000,-0.37000000000000454747
2019-02-21T12:00:00.0000000Z,143.400000,143.060000,0.34000000000000341061
2019-02-21T13:00:00.0000000Z,143.040000,143.810000,-0.77000000000001023182
2019-02-21T14:00:00.0000000Z,143.810000,143.310000,0.50000000000000000000
2019-02-21T15:00:00.0000000Z,143.310000,143.520000,-0.21000000000000795808
2019-02-21T16:00:00.0000000Z,143.580000,142.200000,1.38000000000002387424
2019-02-21T17:00:00.0000000Z,142.170000,142.840000,-0.67000000000001591616
2019-02-21T18:00:00.0000000Z,142.840000,142.500000,0.34000000000000341061
2019-02-21T19:00:00.0000000Z,142.500000,142.940000,-0.43999999999999772626
2019-02-21T20:00:00.0000000Z,142.940000,142.870000,0.06999999999999317879
2019-02-21T21:00:00.0000000Z,142.870000,143.460000,-0.59000000000000341061
2019-02-21T22:00:00.0000000Z,143.460000,142.850000,0.61000000000001364242
2019-02-21T23:00:00.0000000Z,142.880000,144.210000,-1.33000000000001250555
2019-02-22T00:00:00.0000000Z,144.190000,143.860000,0.32999999999998408384
2019-02-22T01:00:00.0000000Z,143.850000,144.890000,-1.03999999999999204192
2019-02-22T02:00:00.0000000Z,144.900000,145.500000,-0.59999999999999431566
2019-02-22T03:00:00.0000000Z,145.500000,144.860000,0.63999999999998635758
2019-02-22T04:00:00.0000000Z,144.860000,144.990000,-0.12999999999999545253
2019-02-22T05:00:00.0000000Z,144.980000,144.700000,0.28000000000000113687
2019-02-22T06:00:00.0000000Z,144.700000,144.570000,0.12999999999999545253
2019-02-22T07:00:00.0000000Z,144.580000,143.200000,1.38000000000002387424
2019-02-22T08:00:00.0000000Z,143.200000,145.790000,-2.59000000000000341061
2019-02-22T09:00:00.0000000Z,145.790000,146.200000,-0.40999999999999658939
2019-02-22T10:00:00.0000000Z,146.190000,145.980000,0.21000000000000795808
2019-02-22T11:00:00.0000000Z,145.990000,145.810000,0.18000000000000682121
2019-02-22T12:00:00.0000000Z,145.830000,146.120000,-0.28999999999999204192
2019-02-22T13:00:00.0000000Z,146.120000,147.000000,-0.87999999999999545253
2019-02-22T14:00:00.0000000Z,147.010000,146.440000,0.56999999999999317879
2019-02-22T15:00:00.0000000Z,146.500000,146.470000,0.03000000000000113687
2019-02-22T16:00:00.0000000Z,146.470000,146.580000,-0.11000000000001364242
2019-02-22T17:00:00.0000000Z,146.580000,146.940000,-0.35999999999998522071
2019-02-22T18:00:00.0000000Z,147.000000,147.150000,-0.15000000000000568434
2019-02-22T19:00:00.0000000Z,147.150000,147.020000,0.12999999999999545253
2019-02-22T20:00:00.0000000Z,147.010000,146.320000,0.68999999999999772626
2019-02-22T21:00:00.0000000Z,146.320000,146.880000,-0.56000000000000227374
2019-02-22T22:00:00.0000000Z,146.880000,147.080000,-0.20000000000001705303
2019-02-22T23:00:00.0000000Z,147.080000,146.680000,0.40000000000000568434
2019-02-23T00:00:00.0000000Z,146.670000,146.410000,0.25999999999999090505
2019-02-23T01:00:00.0000000Z,146.400000,146.860000,-0.46000000000000795808
2019-02-23T02:00:00.0000000Z,146.900000,146.100000,0.80000000000001136868
2019-02-23T03:00:00.0000000Z,146.120000,146.290000,-0.16999999999998749445
2019-02-23T04:00:00.0000000Z,146.290000,145.390000,0.90000000000000568434
2019-02-23T05:00:00.0000000Z,145.380000,145.710000,-0.33000000000001250555
2019-02-23T06:00:00.0000000Z,145.710000,145.970000,-0.25999999999999090505
2019-02-23T07:00:00.0000000Z,145.960000,145.870000,0.09000000000000341061
2019-02-23T08:00:00.0000000Z,145.860000,145.620000,0.24000000000000909495
2019-02-23T09:00:00.0000000Z,145.620000,146.940000,-1.31999999999999317879
2019-02-23T10:00:00.0000000Z,147.010000,147.410000,-0.40000000000000568434
2019-02-23T11:00:00.0000000Z,147.410000,147.000000,0.40999999999999658939
2019-02-23T12:00:00.0000000Z,147.010000,147.100000,-0.09000000000000341061
2019-02-23T13:00:00.0000000Z,147.100000,147.010000,0.09000000000000341061
2019-02-23T14:00:00.0000000Z,147.010000,146.980000,0.03000000000000113687
2019-02-23T15:00:00.0000000Z,146.980000,146.550000,0.42999999999997839950
2019-02-23T16:00:00.0000000Z,146.550000,152.600000,-6.04999999999998294697
2019-02-23T17:00:00.0000000Z,152.550000,155.930000,-3.37999999999999545253
2019-02-23T18:00:00.0000000Z,155.930000,156.370000,-0.43999999999999772626
2019-02-23T19:00:00.0000000Z,156.370000,156.410000,-0.03999999999999204192
2019-02-23T20:00:00.0000000Z,156.460000,159.140000,-2.67999999999997839950
2019-02-23T21:00:00.0000000Z,159.020000,156.500000,2.52000000000001023182
2019-02-23T22:00:00.0000000Z,156.500000,157.480000,-0.97999999999998976818
2019-02-23T23:00:00.0000000Z,157.480000,157.560000,-0.08000000000001250555
2019-02-24T00:00:00.0000000Z,157.550000,158.880000,-1.32999999999998408384
2019-02-24T01:00:00.0000000Z,158.880000,158.950000,-0.06999999999999317879
2019-02-24T02:00:00.0000000Z,158.950000,163.920000,-4.96999999999999886313
2019-02-24T03:00:00.0000000Z,163.940000,163.760000,0.18000000000000682121
2019-02-24T04:00:00.0000000Z,163.760000,162.980000,0.78000000000000113687
2019-02-24T05:00:00.0000000Z,162.980000,163.990000,-1.01000000000001932676
2019-02-24T06:00:00.0000000Z,164.000000,164.080000,-0.08000000000001250555
2019-02-24T07:00:00.0000000Z,164.090000,163.870000,0.21999999999999886313
2019-02-24T08:00:00.0000000Z,163.870000,162.320000,1.55000000000001136868
2019-02-24T09:00:00.0000000Z,162.320000,162.520000,-0.20000000000001705303
2019-02-24T10:00:00.0000000Z,162.520000,163.000000,-0.47999999999998976818
2019-02-24T11:00:00.0000000Z,163.010000,162.780000,0.22999999999998976818
2019-02-24T12:00:00.0000000Z,162.790000,161.370000,1.41999999999998749445
2019-02-24T13:00:00.0000000Z,161.380000,159.990000,1.38999999999998635758
2019-02-24T14:00:00.0000000Z,160.000000,140.000000,20.00000000000000000000
2019-02-24T15:00:00.0000000Z,139.940000,139.850000,0.09000000000000341061
2019-02-24T16:00:00.0000000Z,139.990000,137.570000,2.42000000000001591616
2019-02-24T17:00:00.0000000Z,137.570000,138.270000,-0.70000000000001705303
2019-02-24T18:00:00.0000000Z,138.290000,138.940000,-0.65000000000000568434
2019-02-24T19:00:00.0000000Z,138.960000,138.580000,0.37999999999999545253
2019-02-24T20:00:00.0000000Z,138.590000,139.200000,-0.60999999999998522071
2019-02-24T21:00:00.0000000Z,139.200000,139.010000,0.18999999999999772626
2019-02-24T22:00:00.0000000Z,139.000000,137.750000,1.25000000000000000000
2019-02-24T23:00:00.0000000Z,137.750000,131.760000,5.99000000000000909495
2019-02-25T00:00:00.0000000Z,131.880000,134.880000,-3.00000000000000000000
2019-02-25T01:00:00.0000000Z,134.870000,135.650000,-0.78000000000000113687
2019-02-25T02:00:00.0000000Z,135.550000,137.410000,-1.85999999999998522071
2019-02-25T03:00:00.0000000Z,137.410000,137.830000,-0.42000000000001591616
2019-02-25T04:00:00.0000000Z,137.870000,138.770000,-0.90000000000000568434
2019-02-25T05:00:00.0000000Z,138.770000,137.700000,1.07000000000002160050
2019-02-25T06:00:00.0000000Z,137.690000,137.100000,0.59000000000000341061
2019-02-25T07:00:00.0000000Z,137.080000,136.140000,0.94000000000002614797
2019-02-25T08:00:00.0000000Z,136.130000,137.010000,-0.87999999999999545253
2019-02-25T09:00:00.0000000Z,137.020000,136.660000,0.36000000000001364242
2019-02-25T10:00:00.0000000Z,136.660000,135.990000,0.66999999999998749445
2019-02-25T11:00:00.0000000Z,136.270000,136.360000,-0.09000000000000341061
2019-02-25T12:00:00.0000000Z,136.220000,137.770000,-1.55000000000001136868
2019-02-25T13:00:00.0000000Z,137.780000,137.650000,0.12999999999999545253
2019-02-25T14:00:00.0000000Z,137.640000,136.310000,1.32999999999998408384
2019-02-25T15:00:00.0000000Z,136.320000,136.670000,-0.34999999999999431566
2019-02-25T16:00:00.0000000Z,136.670000,139.980000,-3.31000000000000227374
2019-02-25T17:00:00.0000000Z,139.990000,138.520000,1.46999999999999886313
2019-02-25T18:00:00.0000000Z,138.520000,140.540000,-2.01999999999998181011
2019-02-25T19:00:00.0000000Z,140.530000,139.400000,1.12999999999999545253
2019-02-25T20:00:00.0000000Z,139.400000,137.350000,2.05000000000001136868
2019-02-25T21:00:00.0000000Z,137.330000,135.900000,1.43000000000000682121
2019-02-25T22:00:00.0000000Z,135.900000,138.100000,-2.19999999999998863132
2019-02-25T23:00:00.0000000Z,138.090000,137.640000,0.45000000000001705303
2019-02-26T00:00:00.0000000Z,137.630000,137.910000,-0.28000000000000113687
2019-02-26T01:00:00.0000000Z,137.850000,137.510000,0.34000000000000341061
2019-02-26T02:00:00.0000000Z,137.510000,137.350000,0.15999999999999658939
2019-02-26T03:00:00.0000000Z,137.330000,137.580000,-0.25000000000000000000
2019-02-26T04:00:00.0000000Z,137.570000,137.240000,0.32999999999998408384
2019-02-26T05:00:00.0000000Z,137.240000,136.350000,0.89000000000001477929
2019-02-26T06:00:00.0000000Z,136.350000,135.550000,0.79999999999998294697
2019-02-26T07:00:00.0000000Z,135.550000,136.190000,-0.63999999999998635758
2019-02-26T08:00:00.0000000Z,136.180000,135.820000,0.36000000000001364242
2019-02-26T09:00:00.0000000Z,135.810000,135.640000,0.17000000000001591616
2019-02-26T10:00:00.0000000Z,135.630000,135.910000,-0.28000000000000113687
2019-02-26T11:00:00.0000000Z,135.910000,135.390000,0.52000000000001023182
2019-02-26T12:00:00.0000000Z,135.440000,135.040000,0.40000000000000568434
2019-02-26T13:00:00.0000000Z,135.010000,135.150000,-0.14000000000001477929
2019-02-26T14:00:00.0000000Z,135.140000,136.440000,-1.30000000000001136868
2019-02-26T15:00:00.0000000Z,136.440000,136.010000,0.43000000000000682121
2019-02-26T16:00:00.0000000Z,136.010000,135.010000,1.00000000000000000000
2019-02-26T17:00:00.0000000Z,135.000000,135.080000,-0.08000000000001250555
2019-02-26T18:00:00.0000000Z,135.080000,134.380000,0.70000000000001705303
2019-02-26T19:00:00.0000000Z,134.390000,134.570000,-0.18000000000000682121
2019-02-26T20:00:00.0000000Z,134.560000,134.670000,-0.10999999999998522071
2019-02-26T21:00:00.0000000Z,134.680000,134.900000,-0.21999999999999886313
2019-02-26T22:00:00.0000000Z,134.930000,135.740000,-0.81000000000000227374
2019-02-26T23:00:00.0000000Z,135.640000,135.660000,-0.02000000000001023182
2019-02-27T00:00:00.0000000Z,135.740000,134.870000,0.87000000000000454747
2019-02-27T01:00:00.0000000Z,134.880000,134.550000,0.32999999999998408384
2019-02-27T02:00:00.0000000Z,134.550000,135.140000,-0.58999999999997498890
2019-02-27T03:00:00.0000000Z,135.140000,135.120000,0.01999999999998181011
2019-02-27T04:00:00.0000000Z,135.120000,135.160000,-0.03999999999999204192
2019-02-27T05:00:00.0000000Z,135.120000,135.870000,-0.75000000000000000000
2019-02-27T06:00:00.0000000Z,135.860000,135.560000,0.30000000000001136868
2019-02-27T07:00:00.0000000Z,135.570000,137.400000,-1.83000000000001250555
2019-02-27T08:00:00.0000000Z,137.410000,137.550000,-0.14000000000001477929
2019-02-27T09:00:00.0000000Z,137.570000,137.430000,0.13999999999998635758
2019-02-27T10:00:00.0000000Z,137.500000,137.460000,0.03999999999999204192
2019-02-27T11:00:00.0000000Z,137.450000,138.000000,-0.55000000000001136868
2019-02-27T12:00:00.0000000Z,138.000000,137.760000,0.24000000000000909495
2019-02-27T13:00:00.0000000Z,137.650000,139.150000,-1.50000000000000000000
2019-02-27T14:00:00.0000000Z,139.140000,137.110000,2.02999999999997271516
2019-02-27T15:00:00.0000000Z,137.110000,136.810000,0.30000000000001136868
2019-02-27T16:00:00.0000000Z,136.800000,136.310000,0.49000000000000909495
2019-02-27T17:00:00.0000000Z,136.300000,136.690000,-0.38999999999998635758
2019-02-27T18:00:00.0000000Z,136.690000,135.730000,0.96000000000000795808
2019-02-27T19:00:00.0000000Z,135.730000,135.030000,0.69999999999998863132
2019-02-27T20:00:00.0000000Z,135.030000,128.940000,6.09000000000000341061
2019-02-27T21:00:00.0000000Z,128.930000,130.880000,-1.94999999999998863132
2019-02-27T22:00:00.0000000Z,130.870000,131.800000,-0.93000000000000682121
2019-02-27T23:00:00.0000000Z,131.700000,134.460000,-2.76000000000001932676
2019-02-28T00:00:00.0000000Z,134.360000,135.780000,-1.41999999999998749445
2019-02-28T01:00:00.0000000Z,135.790000,136.600000,-0.81000000000000227374
2019-02-28T02:00:00.0000000Z,136.600000,135.090000,1.50999999999999090505
2019-02-28T03:00:00.0000000Z,135.090000,135.560000,-0.46999999999999886313
2019-02-28T04:00:00.0000000Z,135.560000,135.840000,-0.28000000000000113687
2019-02-28T05:00:00.0000000Z,135.830000,136.270000,-0.43999999999999772626
2019-02-28T06:00:00.0000000Z,136.270000,135.060000,1.21000000000000795808
2019-02-28T07:00:00.0000000Z,135.060000,134.990000,0.06999999999999317879
2019-02-28T08:00:00.0000000Z,134.990000,136.470000,-1.47999999999998976818
2019-02-28T09:00:00.0000000Z,136.340000,135.790000,0.55000000000001136868
2019-02-28T10:00:00.0000000Z,135.770000,136.120000,-0.34999999999999431566
2019-02-28T11:00:00.0000000Z,136.040000,136.390000,-0.34999999999999431566
2019-02-28T12:00:00.0000000Z,136.390000,136.170000,0.21999999999999886313
2019-02-28T13:00:00.0000000Z,136.110000,135.870000,0.24000000000000909495
2019-02-28T14:00:00.0000000Z,135.870000,136.290000,-0.41999999999998749445
2019-02-28T15:00:00.0000000Z,136.290000,136.480000,-0.18999999999999772626
2019-02-28T16:00:00.0000000Z,136.490000,135.690000,0.80000000000001136868
2019-02-28T17:00:00.0000000Z,135.690000,135.000000,0.68999999999999772626
2019-02-28T18:00:00.0000000Z,134.990000,136.000000,-1.00999999999999090505
2019-02-28T19:00:00.0000000Z,135.990000,135.570000,0.42000000000001591616
2019-02-28T20:00:00.0000000Z,135.560000,134.990000,0.56999999999999317879
2019-02-28T21:00:00.0000000Z,135.010000,135.130000,-0.12000000000000454747
2019-02-28T22:00:00.0000000Z,135.130000,134.680000,0.44999999999998863132
2019-02-28T23:00:00.0000000Z,134.670000,134.480000,0.18999999999999772626
2019-03-01T00:00:00.0000000Z,134.480000,135.020000,-0.54000000000002046363
2019-03-01T01:00:00.0000000Z,135.020000,135.010000,0.01000000000001932676
2019-03-01T02:00:00.0000000Z,135.010000,134.970000,0.03999999999999204192
2019-03-01T03:00:00.0000000Z,134.970000,135.590000,-0.62000000000000454747
2019-03-01T04:00:00.0000000Z,135.570000,135.510000,0.06000000000000227374
2019-03-01T05:00:00.0000000Z,135.520000,135.600000,-0.07999999999998408384
2019-03-01T06:00:00.0000000Z,135.600000,135.270000,0.32999999999998408384
2019-03-01T07:00:00.0000000Z,135.260000,135.000000,0.25999999999999090505
2019-03-01T08:00:00.0000000Z,134.990000,135.180000,-0.18999999999999772626
2019-03-01T09:00:00.0000000Z,135.180000,135.360000,-0.18000000000000682121
2019-03-01T10:00:00.0000000Z,135.490000,135.260000,0.23000000000001818989
2019-03-01T11:00:00.0000000Z,135.280000,135.050000,0.22999999999998976818
2019-03-01T12:00:00.0000000Z,135.050000,135.050000,0.00000000000000000000
2019-03-01T13:00:00.0000000Z,135.050000,135.150000,-0.09999999999999431566
2019-03-01T14:00:00.0000000Z,135.110000,135.280000,-0.16999999999998749445
2019-03-01T15:00:00.0000000Z,135.290000,135.420000,-0.12999999999999545253
2019-03-01T16:00:00.0000000Z,135.410000,136.270000,-0.86000000000001364242
2019-03-01T17:00:00.0000000Z,136.260000,136.700000,-0.43999999999999772626
2019-03-01T18:00:00.0000000Z,136.710000,136.400000,0.31000000000000227374
2019-03-01T19:00:00.0000000Z,136.380000,136.110000,0.26999999999998181011
2019-03-01T20:00:00.0000000Z,136.120000,135.800000,0.31999999999999317879
2019-03-01T21:00:00.0000000Z,135.810000,136.160000,-0.34999999999999431566
2019-03-01T22:00:00.0000000Z,136.200000,135.310000,0.88999999999998635758
2019-03-01T23:00:00.0000000Z,135.300000,134.720000,0.58000000000001250555
2019-03-02T00:00:00.0000000Z,134.710000,135.180000,-0.46999999999999886313
2019-03-02T01:00:00.0000000Z,135.180000,135.160000,0.02000000000001023182
2019-03-02T02:00:00.0000000Z,135.150000,134.980000,0.17000000000001591616
2019-03-02T03:00:00.0000000Z,134.980000,134.790000,0.18999999999999772626
2019-03-02T04:00:00.0000000Z,134.790000,134.270000,0.51999999999998181011
2019-03-02T05:00:00.0000000Z,134.270000,133.610000,0.65999999999999658939
2019-03-02T06:00:00.0000000Z,133.610000,133.550000,0.06000000000000227374
2019-03-02T07:00:00.0000000Z,133.540000,132.120000,1.41999999999998749445
2019-03-02T08:00:00.0000000Z,132.210000,132.270000,-0.06000000000000227374
2019-03-02T09:00:00.0000000Z,132.330000,131.900000,0.43000000000000682121
2019-03-02T10:00:00.0000000Z,131.890000,132.670000,-0.78000000000000113687
2019-03-02T11:00:00.0000000Z,132.670000,133.510000,-0.84000000000000341061
2019-03-02T12:00:00.0000000Z,133.410000,133.030000,0.37999999999999545253
2019-03-02T13:00:00.0000000Z,133.070000,132.440000,0.62999999999999545253
2019-03-02T14:00:00.0000000Z,132.530000,132.670000,-0.13999999999998635758
2019-03-02T15:00:00.0000000Z,132.670000,131.790000,0.87999999999999545253
2019-03-02T16:00:00.0000000Z,131.760000,131.310000,0.44999999999998863132
2019-03-02T17:00:00.0000000Z,131.310000,130.490000,0.81999999999999317879
2019-03-02T18:00:00.0000000Z,130.380000,131.100000,-0.71999999999999886313
2019-03-02T19:00:00.0000000Z,131.110000,132.410000,-1.29999999999998294697
2019-03-02T20:00:00.0000000Z,132.410000,131.990000,0.41999999999998749445
2019-03-02T21:00:00.0000000Z,132.050000,132.540000,-0.48999999999998067324
2019-03-02T22:00:00.0000000Z,132.550000,131.690000,0.86000000000001364242
2019-03-02T23:00:00.0000000Z,131.700000,132.320000,-0.62000000000000454747
2019-03-03T00:00:00.0000000Z,132.310000,133.790000,-1.47999999999998976818
2019-03-03T01:00:00.0000000Z,133.760000,133.380000,0.37999999999999545253
2019-03-03T02:00:00.0000000Z,133.590000,133.170000,0.42000000000001591616
2019-03-03T03:00:00.0000000Z,133.150000,133.090000,0.06000000000000227374
2019-03-03T04:00:00.0000000Z,133.090000,133.010000,0.08000000000001250555
2019-03-03T05:00:00.0000000Z,133.000000,133.250000,-0.25000000000000000000
2019-03-03T06:00:00.0000000Z,133.260000,133.170000,0.09000000000000341061
2019-03-03T07:00:00.0000000Z,133.150000,133.390000,-0.23999999999998067324
2019-03-03T08:00:00.0000000Z,133.400000,133.150000,0.25000000000000000000
2019-03-03T09:00:00.0000000Z,133.150000,133.220000,-0.06999999999999317879
2019-03-03T10:00:00.0000000Z,133.230000,133.370000,-0.14000000000001477929
2019-03-03T11:00:00.0000000Z,133.370000,133.110000,0.25999999999999090505
2019-03-03T12:00:00.0000000Z,133.120000,133.030000,0.09000000000000341061
2019-03-03T13:00:00.0000000Z,132.980000,132.130000,0.84999999999999431566
2019-03-03T14:00:00.0000000Z,132.240000,131.660000,0.58000000000001250555
2019-03-03T15:00:00.0000000Z,131.630000,130.880000,0.75000000000000000000
2019-03-03T16:00:00.0000000Z,130.870000,131.160000,-0.28999999999999204192
2019-03-03T17:00:00.0000000Z,131.230000,131.120000,0.10999999999998522071
2019-03-03T18:00:00.0000000Z,131.110000,131.020000,0.09000000000000341061
2019-03-03T19:00:00.0000000Z,130.990000,130.580000,0.40999999999999658939
2019-03-03T20:00:00.0000000Z,130.580000,131.100000,-0.51999999999998181011
2019-03-03T21:00:00.0000000Z,131.050000,130.730000,0.32000000000002160050
2019-03-03T22:00:00.0000000Z,130.780000,130.450000,0.33000000000001250555
2019-03-03T23:00:00.0000000Z,130.450000,129.780000,0.66999999999998749445
2019-03-04T00:00:00.0000000Z,129.790000,129.990000,-0.20000000000001705303
2019-03-04T01:00:00.0000000Z,129.990000,129.740000,0.25000000000000000000
2019-03-04T02:00:00.0000000Z,129.740000,128.390000,1.35000000000002273737
2019-03-04T03:00:00.0000000Z,128.380000,128.150000,0.22999999999998976818
2019-03-04T04:00:00.0000000Z,128.150000,126.970000,1.18000000000000682121
2019-03-04T05:00:00.0000000Z,126.940000,126.890000,0.04999999999999715783
2019-03-04T06:00:00.0000000Z,126.880000,127.000000,-0.12000000000000454747
2019-03-04T07:00:00.0000000Z,126.990000,126.450000,0.53999999999999204192
2019-03-04T08:00:00.0000000Z,126.390000,125.570000,0.82000000000000738964
2019-03-04T09:00:00.0000000Z,125.580000,124.550000,1.03000000000000113687
2019-03-04T10:00:00.0000000Z,124.590000,124.010000,0.57999999999999829470
2019-03-04T11:00:00.0000000Z,124.010000,124.340000,-0.32999999999999829470
2019-03-04T12:00:00.0000000Z,124.320000,124.020000,0.29999999999999715783
2019-03-04T13:00:00.0000000Z,124.020000,124.810000,-0.79000000000000625278
2019-03-04T14:00:00.0000000Z,124.790000,125.480000,-0.68999999999999772626
2019-03-04T15:00:00.0000000Z,125.500000,125.350000,0.15000000000000568434
2019-03-04T16:00:00.0000000Z,125.380000,125.370000,0.00999999999999090505
2019-03-04T17:00:00.0000000Z,125.370000,125.520000,-0.14999999999999147349
2019-03-04T18:00:00.0000000Z,125.570000,125.030000,0.53999999999999204192
2019-03-04T19:00:00.0000000Z,125.030000,125.130000,-0.09999999999999431566
2019-03-04T20:00:00.0000000Z,125.130000,125.980000,-0.85000000000000852651
2019-03-04T21:00:00.0000000Z,125.910000,125.560000,0.34999999999999431566
2019-03-04T22:00:00.0000000Z,125.490000,124.850000,0.64000000000000056843
2019-03-04T23:00:00.0000000Z,124.840000,125.240000,-0.39999999999999147349
2019-03-05T00:00:00.0000000Z,125.240000,125.390000,-0.15000000000000568434
2019-03-05T01:00:00.0000000Z,125.470000,125.090000,0.37999999999999545253
2019-03-05T02:00:00.0000000Z,125.080000,124.870000,0.20999999999999374722
2019-03-05T03:00:00.0000000Z,124.880000,125.260000,-0.38000000000000966338
2019-03-05T04:00:00.0000000Z,125.250000,125.860000,-0.60999999999999943157
2019-03-05T05:00:00.0000000Z,125.860000,125.630000,0.23000000000000397904
2019-03-05T06:00:00.0000000Z,125.770000,126.240000,-0.46999999999999886313
2019-03-05T07:00:00.0000000Z,126.250000,127.090000,-0.84000000000000341061
2019-03-05T08:00:00.0000000Z,127.100000,128.240000,-1.14000000000001477929
2019-03-05T09:00:00.0000000Z,128.180000,127.790000,0.39000000000000056843
2019-03-05T10:00:00.0000000Z,127.770000,127.450000,0.31999999999999317879
2019-03-05T11:00:00.0000000Z,127.500000,127.820000,-0.31999999999999317879
2019-03-05T12:00:00.0000000Z,127.790000,128.220000,-0.42999999999999261036
2019-03-05T13:00:00.0000000Z,128.220000,134.240000,-6.02000000000001023182
2019-03-05T14:00:00.0000000Z,134.430000,133.200000,1.23000000000001818989
2019-03-05T15:00:00.0000000Z,133.250000,133.680000,-0.43000000000000682121
2019-03-05T16:00:00.0000000Z,133.690000,135.570000,-1.87999999999999545253
2019-03-05T17:00:00.0000000Z,135.640000,136.130000,-0.49000000000000909495
2019-03-05T18:00:00.0000000Z,136.160000,135.640000,0.52000000000001023182
2019-03-05T19:00:00.0000000Z,135.630000,136.390000,-0.75999999999999090505
2019-03-05T20:00:00.0000000Z,136.380000,135.320000,1.06000000000000227374
2019-03-05T21:00:00.0000000Z,135.320000,135.230000,0.09000000000000341061
2019-03-05T22:00:00.0000000Z,135.240000,135.130000,0.11000000000001364242
2019-03-05T23:00:00.0000000Z,135.130000,136.300000,-1.17000000000001591616
2019-03-06T00:00:00.0000000Z,136.300000,135.450000,0.85000000000002273737
2019-03-06T01:00:00.0000000Z,135.460000,135.100000,0.36000000000001364242
2019-03-06T02:00:00.0000000Z,135.090000,135.590000,-0.50000000000000000000
2019-03-06T03:00:00.0000000Z,135.600000,134.930000,0.66999999999998749445
2019-03-06T04:00:00.0000000Z,134.910000,134.980000,-0.06999999999999317879
2019-03-06T05:00:00.0000000Z,134.980000,135.140000,-0.15999999999999658939
2019-03-06T06:00:00.0000000Z,135.160000,136.750000,-1.59000000000000341061
2019-03-06T07:00:00.0000000Z,136.760000,136.860000,-0.10000000000002273737
2019-03-06T08:00:00.0000000Z,136.850000,136.250000,0.59999999999999431566
2019-03-06T09:00:00.0000000Z,136.080000,137.160000,-1.07999999999998408384
2019-03-06T10:00:00.0000000Z,137.160000,137.000000,0.15999999999999658939
2019-03-06T11:00:00.0000000Z,137.000000,138.350000,-1.34999999999999431566
2019-03-06T12:00:00.0000000Z,138.350000,137.310000,1.03999999999999204192
2019-03-06T13:00:00.0000000Z,137.320000,136.570000,0.75000000000000000000
2019-03-06T14:00:00.0000000Z,136.600000,136.260000,0.34000000000000341061
2019-03-06T15:00:00.0000000Z,136.270000,137.500000,-1.22999999999998976818
2019-03-06T16:00:00.0000000Z,137.500000,137.420000,0.08000000000001250555
2019-03-06T17:00:00.0000000Z,137.420000,136.620000,0.79999999999998294697
2019-03-06T18:00:00.0000000Z,136.600000,136.610000,-0.01000000000001932676
2019-03-06T19:00:00.0000000Z,136.610000,136.500000,0.11000000000001364242
2019-03-06T20:00:00.0000000Z,136.500000,135.980000,0.52000000000001023182
2019-03-06T21:00:00.0000000Z,135.970000,136.550000,-0.58000000000001250555
2019-03-06T22:00:00.0000000Z,136.550000,137.200000,-0.64999999999997726263
2019-03-06T23:00:00.0000000Z,137.200000,137.000000,0.19999999999998863132
2019-03-07T00:00:00.0000000Z,137.000000,137.880000,-0.87999999999999545253
2019-03-07T01:00:00.0000000Z,137.880000,137.960000,-0.08000000000001250555
2019-03-07T02:00:00.0000000Z,137.950000,138.220000,-0.27000000000001023182
2019-03-07T03:00:00.0000000Z,138.220000,138.500000,-0.28000000000000113687
2019-03-07T04:00:00.0000000Z,138.510000,138.940000,-0.43000000000000682121
2019-03-07T05:00:00.0000000Z,138.940000,137.270000,1.66999999999998749445
2019-03-07T06:00:00.0000000Z,137.270000,137.350000,-0.07999999999998408384
2019-03-07T07:00:00.0000000Z,137.330000,137.400000,-0.06999999999999317879
2019-03-07T08:00:00.0000000Z,137.390000,136.620000,0.76999999999998181011
2019-03-07T09:00:00.0000000Z,136.610000,136.340000,0.27000000000001023182
2019-03-07T10:00:00.0000000Z,136.340000,135.820000,0.52000000000001023182
2019-03-07T11:00:00.0000000Z,135.820000,136.100000,-0.28000000000000113687
2019-03-07T12:00:00.0000000Z,136.110000,137.060000,-0.94999999999998863132
2019-03-07T13:00:00.0000000Z,137.060000,136.610000,0.44999999999998863132
2019-03-07T14:00:00.0000000Z,136.620000,137.020000,-0.40000000000000568434
2019-03-07T15:00:00.0000000Z,137.020000,136.300000,0.71999999999999886313
2019-03-07T16:00:00.0000000Z,136.280000,136.920000,-0.63999999999998635758
2019-03-07T17:00:00.0000000Z,136.950000,136.560000,0.38999999999998635758
2019-03-07T18:00:00.0000000Z,136.560000,136.930000,-0.37000000000000454747
2019-03-07T19:00:00.0000000Z,136.930000,136.900000,0.03000000000000113687
2019-03-07T20:00:00.0000000Z,136.900000,137.090000,-0.18999999999999772626
2019-03-07T21:00:00.0000000Z,137.090000,137.250000,-0.15999999999999658939
2019-03-07T22:00:00.0000000Z,137.240000,136.820000,0.42000000000001591616
2019-03-07T23:00:00.0000000Z,136.830000,136.290000,0.54000000000002046363
2019-03-08T00:00:00.0000000Z,136.250000,136.280000,-0.03000000000000113687
2019-03-08T01:00:00.0000000Z,136.270000,135.510000,0.76000000000001932676
2019-03-08T02:00:00.0000000Z,135.510000,135.740000,-0.23000000000001818989
2019-03-08T03:00:00.0000000Z,135.730000,135.230000,0.50000000000000000000
2019-03-08T04:00:00.0000000Z,135.230000,135.980000,-0.75000000000000000000
2019-03-08T05:00:00.0000000Z,135.980000,136.300000,-0.32000000000002160050
2019-03-08T06:00:00.0000000Z,136.290000,136.150000,0.13999999999998635758
2019-03-08T07:00:00.0000000Z,136.260000,135.360000,0.89999999999997726263
2019-03-08T08:00:00.0000000Z,135.380000,135.500000,-0.12000000000000454747
2019-03-08T09:00:00.0000000Z,135.480000,135.310000,0.16999999999998749445
2019-03-08T10:00:00.0000000Z,135.310000,136.090000,-0.78000000000000113687
2019-03-08T11:00:00.0000000Z,136.100000,135.620000,0.47999999999998976818
2019-03-08T12:00:00.0000000Z,135.610000,135.640000,-0.02999999999997271516
2019-03-08T13:00:00.0000000Z,135.640000,136.170000,-0.53000000000000113687
2019-03-08T14:00:00.0000000Z,136.170000,136.760000,-0.59000000000000341061
2019-03-08T15:00:00.0000000Z,136.760000,136.510000,0.25000000000000000000
2019-03-08T16:00:00.0000000Z,136.510000,136.200000,0.31000000000000227374
2019-03-08T17:00:00.0000000Z,136.160000,136.140000,0.02000000000001023182
2019-03-08T18:00:00.0000000Z,136.130000,136.000000,0.12999999999999545253
2019-03-08T19:00:00.0000000Z,136.030000,137.510000,-1.47999999999998976818
2019-03-08T20:00:00.0000000Z,137.510000,137.340000,0.16999999999998749445
2019-03-08T21:00:00.0000000Z,137.340000,135.490000,1.84999999999999431566
2019-03-08T22:00:00.0000000Z,135.490000,132.100000,3.39000000000001477929
2019-03-08T23:00:00.0000000Z,132.140000,132.750000,-0.61000000000001364242
2019-03-09T00:00:00.0000000Z,132.750000,133.350000,-0.59999999999999431566
2019-03-09T01:00:00.0000000Z,133.380000,133.570000,-0.18999999999999772626
2019-03-09T02:00:00.0000000Z,133.590000,133.890000,-0.29999999999998294697
2019-03-09T03:00:00.0000000Z,133.890000,133.690000,0.19999999999998863132
2019-03-09T04:00:00.0000000Z,133.680000,133.710000,-0.03000000000000113687
2019-03-09T05:00:00.0000000Z,133.710000,134.330000,-0.62000000000000454747
2019-03-09T06:00:00.0000000Z,134.340000,136.580000,-2.24000000000000909495
2019-03-09T07:00:00.0000000Z,136.670000,136.150000,0.51999999999998181011
2019-03-09T08:00:00.0000000Z,136.200000,136.770000,-0.57000000000002160050
2019-03-09T09:00:00.0000000Z,136.760000,136.920000,-0.15999999999999658939
2019-03-09T10:00:00.0000000Z,136.920000,136.390000,0.53000000000000113687
2019-03-09T11:00:00.0000000Z,136.360000,136.630000,-0.26999999999998181011
2019-03-09T12:00:00.0000000Z,136.640000,137.230000,-0.59000000000000341061
2019-03-09T13:00:00.0000000Z,137.230000,136.120000,1.10999999999998522071
2019-03-09T14:00:00.0000000Z,136.220000,137.120000,-0.90000000000000568434
2019-03-09T15:00:00.0000000Z,137.130000,136.760000,0.37000000000000454747
2019-03-09T16:00:00.0000000Z,136.760000,135.690000,1.06999999999999317879
2019-03-09T17:00:00.0000000Z,135.630000,135.760000,-0.12999999999999545253
2019-03-09T18:00:00.0000000Z,135.730000,136.320000,-0.59000000000000341061
2019-03-09T19:00:00.0000000Z,136.320000,136.420000,-0.09999999999999431566
2019-03-09T20:00:00.0000000Z,136.350000,135.940000,0.40999999999999658939
2019-03-09T21:00:00.0000000Z,135.920000,135.760000,0.15999999999999658939
2019-03-09T22:00:00.0000000Z,135.760000,135.970000,-0.21000000000000795808
2019-03-09T23:00:00.0000000Z,136.010000,136.410000,-0.40000000000000568434
