67,22.679274891774895,-1.8690949675324675,-1
60,23.311746289424853,-3.3088888888888888,1
86,26.186991341991327,-1.151388888888889,-1
51,19.17320346320346,-3.144047619047619,-1
37,9.337979572510823,-0.4958333333333333,1
43,14.862085317460318,-1.1604166666666667,-1
43,14.007381854256856,-0.5802083333333334,-1
44,14.723403679653682,-1.3820454545454546,1
68,17.72076569264069,-0.6000000000000001,1
40,13.644161255411252,-1.6584821428571428,-1
32,10.46301406926407,-0.575,-1
36,10.419745670995672,-0.7375,1
51,21.187104076479066,-0.9978174603174603,-1
36,16.197875180375178,-2.7148518518518516,1
68,24.21007115043431,-2.276388888888889,-1
35,16.277828282828285,-1.620138888888889,-1
43,14.644463203463205,-1.8323232323232324,1
63,25.444685555330086,-1.875,1
68,24.31195947570947,-1.4630681818181819,-1
77,27.528988997113988,-3.4234848484848484,-1
106,35.834694504569505,-1.7214285714285713,1
72,27.593767406204897,-6.057463924963924,-1
82,27.107159451659427,-2.3868055555555556,1
84,23.675106301106297,-1.7141666666666668,1
73,29.28678661616161,-2.4812662337662332,-1
66,20.664055194805183,-2.462797619047619,1
62,14.670324675324673,-1.2,1
25,9.395562770562773,-2.228611111111111,-1
54,16.32250541125541,-1.1041666666666665,1
36,10.97116702741703,-0.1,1
31,13.39944264069264,-3.3088458994709,-1
34,11.55005772005772,-1.5559027777777776,-1
50,15.814572510822517,-0.7354166666666667,-1
55,17.55990259740259,-0.25,-1
33,12.15249639249639,-1.2059523809523809,-1
57,15.164838383838385,-0.9430803571428572,1
51,19.51658189033188,-1.1409722222222225,-1
47,14.600892857142858,-0.5333333333333333,1
41,14.304969336219337,-2.240555555555556,1
46,13.668181818181823,-1.0877272727272727,1
48,19.755006297982614,-0.7732323232323233,-1
63,15.474125420875422,-0.45,-1
63,20.478582025613274,-0.894119769119769,-1
75,23.90296987734488,-0.6777777777777778,1
59,21.965719696969686,-1.8997348484848486,-1
82,23.855652597402578,-0.8464285714285714,-1
76,20.22232323232322,-2.1250000000000004,1
71,19.56443632756132,-1.4976010101010102,-1
46,18.314917929292925,-2.5964285714285715,1
77,16.917293169793172,-0.30833333333333335,1
37,13.013939393939394,-1.1291666666666667,-1
53,14.324594155844155,-0.8833333333333333,1
40,14.020398268398269,-1.2808035714285715,-1
52,16.66005050505051,-1.478720238095238,-1
48,13.611607142857144,-0.65,1
32,11.94045454545455,-1.6500000000000004,-1
63,16.619978084415585,-1.115909090909091,-1
26,8.532123015873017,-0.07676767676767679,-1
39,12.480097402597405,-0.07500000000000001,1
46,12.31938852813853,-0.8988095238095238,-1
32,12.287759740259741,-1.1782602813852816,-1
26,9.276406926406928,-0.9680555555555556,-1
53,19.74544981060606,-2.4816666666666665,1
62,17.342531585385107,-0.9435185185185186,1
48,17.654586580086583,-0.10277777777777777,-1
73,21.662080627705613,-0.8208333333333333,-1
73,22.17660398629147,-1.6651785714285714,-1
58,18.551919191919197,-0.7234848484848485,-1
52,17.014042207792208,-2.295138888888889,1
72,19.90694426406925,-1.0593578643578645,1
73,22.901104572510807,-1.6487752525252524,1
67,19.71585588023087,-1.9284126984126986,1
58,15.55609758297258,-1.2479166666666666,-1
60,18.920633116883117,-0.55,-1
48,15.954602949134202,-1.2333333333333334,1
39,12.056615462662338,-1.1652777777777776,-1
43,12.881940476190477,-0.28015873015873016,1
42,12.471774891774892,-1.1944444444444444,-1
38,13.669901920995672,-2.1866319444444446,1
27,9.822312184343435,-0.4805555555555555,-1
28,9.62304292929293,-0.78125,-1
23,7.492433261183261,-0.4986111111111111,-1
36,10.594756493506495,-0.825,-1
27,9.676477272727272,-0.6607142857142857,1
36,15.901141414141419,-1.6166666666666667,-1
41,12.27052308802309,-0.9111111111111112,-1
51,14.146425768038931,-0.3306818181818182,-1
61,19.653539862914855,-0.30000000000000004,-1
33,9.604829545454548,-1.0166666666666668,-1
52,14.909896103896108,-0.2359848484848485,1
53,12.498686868686871,-0.9633101851851852,-1
77,16.07742484367484,-1.1489583333333333,-1
71,21.072754329004322,-1.354265873015873,1
81,20.931196244231934,-0.6410714285714286,-1
73,22.894254148629123,-1.3115800865800866,-1
68,24.773762175324656,-2.3893518518518517,1
54,18.812778722600147,-1.8607142857142858,-1
63,23.832681352212596,-0.31910714285714287,-1
67,26.430294011544003,-2.958333333333334,-1
53,17.47320911495911,-1.7958333333333334,-1
44,17.820102813852817,-1.9807539682539685,-1
41,13.757381966991344,-0.346875,-1
33,12.775463507846322,-0.15897817460317462,1
45,14.36185064935065,-0.4916666666666667,-1
50,14.197856691919192,-1.7037450396825395,-1
6,4.158494318181818,-1.325,1
77,24.396737012986993,-1.3166666666666667,1
94,33.86043221328935,-2.0072781385281386,1
80,27.672664141414142,-0.8254629629629628,1
52,19.118261784511777,-2.335511363636364,-1
66,21.503382034632033,-0.9610321969696969,1
86,23.94603445165945,-1.9625,1
55,19.925518804112556,-2.772213203463203,-1
91,26.617704850704847,-0.925,-1
70,21.211305014430017,-0.9560185185185186,1
52,17.42876758658009,-0.8310606060606059,-1
48,15.854586940836942,-1.0875,-1
32,9.748759018759019,-2.6302083333333335,1
44,12.884243777056279,-1.7775252525252527,1
47,12.16496572871573,-0.7416666666666667,-1
34,11.259568542568543,-0.9664206349206348,-1
34,11.581092171717174,-1.0333333333333332,1
30,11.604478264790764,-0.81328125,-1
59,17.98158784271284,-0.15000000000000002,1
50,14.614287518037516,-0.7625,-1
47,12.58156114718615,-1.4214646464646465,1
45,15.747540584415585,-2.036489898989899,1
58,19.176951603084415,-0.9555555555555557,1
66,20.76709235209236,-1.1704184704184706,-1
51,18.72008152958153,-2.85,1
83,29.095110930735938,-3.6047619047619044,-1
91,30.111529581529574,-0.5694444444444444,1
60,22.431574224386722,-2.088888888888889,-1
63,23.743163780663778,-4.406529581529581,1
63,23.099500360750362,-1.5386111111111114,-1
61,17.249850829725833,-1.2694164862914863,1
44,15.589570707070706,-1.186973665223665,-1
45,15.769151034151031,-2.278370240870241,1
50,15.928892496392498,-1.4347222222222222,-1
43,11.342106782106784,-1.2859166666666666,1
41,9.760600649350652,-0.9179761904761905,-1
41,8.917689393939394,-1.1928030303030306,1
45,12.731458333333332,-0.4,-1
27,9.945005411255412,-0.9051984126984128,-1
40,12.219534632034632,-0.46249999999999997,1
40,13.158164983164983,-0.23181818181818184,-1
32,11.994520202020201,-0.44607142857142856,1
31,9.946933621933622,-2.606881313131313,1
49,14.188107864357864,-0.9541666666666667,1
38,17.118781565656565,-2.120912698412698,-1
52,22.805984397546894,-1.8253637566137568,-1
40,13.630787337662339,-1.405357142857143,1
51,13.142023809523812,-1.2,1
40,14.876654040404043,-1.2947348484848487,-1
61,21.54822679924243,-1.4537499999999999,-1
71,20.791365440115435,-1.2,1
69,20.357418605699856,-1.5228240740740742,1
63,17.38078553391053,-1.3550925925925925,-1
78,20.657359307359307,-1.9976785714285716,-1
61,18.125747655122655,-0.35416666666666663,-1
66,16.231924603174605,-2.2166666666666663,1
53,15.520163014069265,-2.2497743055555555,1
48,16.108453959235206,-2.758928571428572,-1
46,13.296276582792208,-0.8583333333333334,-1
31,14.351183261183266,-0.7947916666666667,1
35,13.435119047619049,-1.2968749999999998,1
32,9.519588744588745,-1.0138888888888888,-1
49,12.338961038961038,-0.4375,1
34,9.439536075036076,-0.2916666666666667,-1
36,15.185814844877346,-1.1291666666666667,1
41,11.494766594516596,-0.425,-1
43,14.502700216450219,-0.24166666666666667,-1
32,12.412310606060606,-0.8313492063492063,1
23,9.644563492063492,-1.1666666666666667,1
32,11.404752525252526,-1.29375,-1
49,15.894725829725832,-0.8902777777777778,-1
44,16.555112734487732,-2.183333333333333,1
89,28.792795364357872,-1.1964285714285716,-1
67,23.619039502164505,-1.3275126262626264,1
44,14.584431457431458,-1.6609920634920634,1
62,21.630778769841275,-1.4538293650793652,1
36,11.352007575757577,-0.61,-1
64,15.747686387686388,-2.2125473484848484,-1
45,15.438538961038962,-1.700238320707071,-1
53,19.45102453102453,-2.992234848484849,-1
45,14.93517586580087,-3.5390625,-1
63,11.879888167388167,-1.2194444444444446,1
60,10.922056818181819,-0.4915,-1
41,12.462106782106781,-1.2229166666666667,-1
32,8.560346320346321,-1.2011363636363637,-1
30,8.161170634920635,-0.8121212121212121,-1
39,11.656019317054474,-0.36249999999999993,-1
53,15.593185425685427,-0.6666666666666666,1
40,13.048385642135642,-0.5484848484848485,1
34,9.214493094207379,-0.4375,-1
41,11.209662923881675,-0.3125,-1
44,13.696563852813851,-0.7937500000000001,1
41,13.328320707070707,-1.3680555555555556,1
30,12.736724025974027,-1.2808830492424241,-1
59,19.16269480519481,-0.7625,-1
49,16.669342712842717,-0.8196969696969697,1
55,16.41408189033189,-0.48750000000000004,1
82,28.313528318903323,-1.9064236111111112,1
92,28.984826388888898,-1.8048809523809526,1
74,27.128748737373733,-2.076253968253968,1
47,15.038920995670999,-1.8212752525252525,1
43,17.61445155208548,-1.94375,-1
56,19.245358225108223,-1.7563973063973064,-1
50,26.42186817580568,-1.2080952380952383,1
35,14.685343434343435,-1.7834722222222221,-1
31,11.81458658008658,-1.1,1
61,19.208127976190475,-1.1125,1
45,14.928748647186147,-0.7916666666666666,1
19,7.9505050505050505,-2.8032963564213564,-1
5,2.4815151515151515,-0.05,-1
38,12.400454545454544,-1.3354166666666667,1
75,24.2498556998557,-1.8076010101010103,-1
53,17.82886363636364,-3.225,1
56,17.87117003367003,-2.0273232323232326,-1
63,22.632159692159696,-2.0082758387445887,1
64,23.5568235930736,-1.3777777777777778,1
39,15.341709956709952,-1.3739898989898989,1
40,17.41357323232323,-3.892929292929294,-1
71,23.518196248196254,-1.7847222222222225,1
59,22.508597452164615,-3.5103125,1
43,17.012453102453104,-2.9813888888888886,1
44,14.382693452380954,-3.904734848484848,-1
39,15.395361652236655,-2.946064814814815,-1
30,10.191050324675325,-1.857828282828283,-1
28,8.918804499072357,-1.096875,-1
21,8.475133477633479,-2.35875,-1
44,12.011511994949498,-0.525,1
30,11.356390692640693,-1.6665404040404044,-1
33,11.568591269841273,-0.8083333333333333,-1
37,10.540488816738819,-0.6930555555555556,-1
38,14.104054608585859,-1.8245370370370368,1
35,14.897563807720058,-1.2342261904761906,1
46,19.822768834175083,-2.351659451659452,-1
31,13.919953102453103,-2.614547084859585,1
68,20.66506840728715,-3.001136363636364,-1
47,17.703487554112556,-1.0951388888888889,-1
48,17.09680128667629,-2.963251201923078,1
68,21.940309268278014,-2.0338062545093796,1
71,27.845188356782106,-3.553021284271284,-1
76,28.08440103415102,-2.5675595238095243,-1
54,20.399934704184705,-4.1210858585858565,1
57,23.957419823232325,-2.642013888888889,1
79,28.118402777777774,-2.5053968253968253,-1
58,27.247413374819622,-6.090653409090909,1
60,25.008078914141414,-5.306552128427128,1
44,19.11622474747475,-4.676319444444444,-1
39,13.08997666396104,-2.020779220779221,1
36,13.669924242424242,-2.3860119047619053,1
38,10.007578192640693,-1.027777777777778,-1
37,10.172238455988456,-0.8159090909090909,1
37,13.596789321789323,-2.316666666666667,1
18,9.782177332758387,-2.7775761873759923,-1
25,7.270177970177971,-1.4845454545454546,1
43,14.447454906204909,-1.5000000000000002,-1
63,17.83585167147667,-1.80490845959596,1
51,16.13702741702742,-2.2244047619047618,1
39,17.964062049062047,-3.4369696969696975,-1
47,14.80768903318903,-1.7333333333333336,-1
69,20.984848124098125,-1.4416666666666669,1
74,23.77306168831169,-1.7309343434343436,1
54,17.3863943001443,-2.597916666666667,1
54,18.093221500721498,-2.864583333333334,-1
85,24.192886315073824,-1.8221620971620973,-1
72,22.952620127991224,-1.9652146464646465,-1
88,30.133371524309027,-1.274031746031746,-1
56,22.513418481691918,-4.912449494949496,-1
66,22.621412082130842,-0.8167929292929292,1
37,17.90544967532467,-2.538361291486292,1
16,17.51737644300145,-6.419561688311688,1
42,10.420213744588743,-1.6609848484848484,-1
26,10.338660413660415,-1.8619023569023572,1
44,11.563991702741703,-0.9416666666666667,1
22,10.909934764309767,-1.2857638888888887,-1
34,11.513111471861471,-0.45348484848484855,1
30,10.497693173228887,-0.7555555555555555,1
27,7.302516233766234,-0.6666666666666666,1
18,6.793749999999999,-0.4666666666666667,1
25,8.088350340136055,-1.0499999999999998,1
45,14.517844516594517,-0.8329229797979798,1
11,6.619204545454545,-2.5222222222222226,1
25,9.747420634920635,-1.3469696969696972,-1
28,8.95595238095238,-0.36160714285714285,1
48,13.97295454545455,-1.1333333333333333,-1
37,14.953883477633482,-0.9434253246753248,-1
61,19.274905077561325,-0.6934343434343435,1
54,20.268461708925987,-0.8583333333333334,1
58,20.544564935064933,-2.2106060606060605,-1
51,16.44837121212121,-1.512121212121212,1
31,15.532135952155485,-2.369606782106782,1
41,13.700208333333336,-1.3945833333333333,1
57,22.260650793650797,-3.644258658008658,-1
40,15.282960858585861,-3.3238546176046175,-1
42,13.438573457792208,-1.488961038961039,1
33,9.995665584415587,-0.2912698412698413,-1
31,9.89728354978355,-0.3772727272727273,1
16,8.018777056277056,-1.3149200336700337,-1
18,9.175622294372294,-1.3267316017316018,-1
16,5.966666666666667,-0.4000000000000001,1
30,9.698214285714286,-0.3373737373737374,1
21,7.406796536796537,-0.8078869047619048,1
25,10.029938143338146,-1.3169949494949496,1
17,9.45462481962482,-1.0194010416666666,-1
30,11.378944805194807,-0.3541666666666667,1
31,11.107045454545457,-0.625,-1
36,14.536436868686868,-1.0582070707070708,1
39,14.314830447330447,-0.30000000000000004,-1
96,16.427946428571424,-0.4375,-1
85,20.03075757575757,-0.4,1
42,19.663064574314575,-1.1540259740259737,1
62,20.254572510822513,-2.2751587301587297,1
51,22.426344246031753,-1.6673412698412697,1
58,21.520561958874463,-0.6708333333333333,1
42,13.734472402597403,-2.019498556998557,-1
45,18.81702741702742,-2.256011904761905,1
61,19.364420431998553,-0.917261904761905,1
79,26.473622835497842,-0.8130952380952381,1
56,18.8768575261544,-1.6555555555555557,-1
53,15.851180104617605,-2.4874007936507936,1
30,12.962993506493508,-2.2638888888888893,1
31,10.899053030303033,-0.7101851851851853,1
28,9.131554383116883,-0.4440972222222222,-1
23,6.70130772005772,-1.3454545454545452,1
62,20.225528612012987,-1.0145089285714286,-1
70,18.218655303030303,-2.668055555555555,1
56,23.837817460317456,-1.7227182539682542,1
74,23.082194264069262,-1.4361111111111111,-1
62,24.99215909090909,-1.7303030303030305,1
102,31.08013888888889,-0.5333333333333333,-1
82,32.488892496392516,-2.324444444444444,-1
70,23.261778499278503,-0.8333333333333334,-1
64,30.22497835497835,-4.983333333333335,-1
108,36.53910173160173,-2.9553030303030305,1
102,38.48360966810966,-4.405303030303032,-1
144,45.52115440115439,-6.513636363636364,1
148,35.07372294372294,-2.5296085858585857,-1
124,41.415748556998544,-2.980858585858586,1
202,62.04087475949969,-4.4701298701298695,1
176,57.58569071669073,-1.3107142857142857,1
132,37.48737012987012,-1.8529166666666672,-1
136,49.16125919913421,-5.491666666666669,1
110,41.52560185185184,-5.188888888888889,1
90,33.264859758297256,-6.1483585858585865,-1
126,46.258018578643565,-7.922294372294374,1
148,41.98904040404042,-4.702777777777778,1
114,32.57184463684464,-0.7666666666666666,-1
66,26.07231962481963,-1.4740922619047618,-1
58,23.799564574314573,-2.7209054834054838,1
98,27.036233766233774,-3.1020833333333333,-1
78,23.85769047619048,-0.03333333333333333,-1
120,34.210533008658004,-2.9611111111111112,-1
74,20.936042568542565,-1.7055555555555557,-1
72,20.632341269841266,-1.7000000000000004,-1
104,25.144689754689743,-0.06363636363636366,1
80,29.31552597402598,-1.5231481481481484,-1
124,33.72246753246754,-1.2125,-1
106,34.43052579365079,-1.511111111111111,1
128,38.92999999999999,-3.391666666666667,1
92,33.508863636363635,-4.574999999999999,1
150,44.10918975468976,-0.8757575757575758,-1
174,56.547428977272716,-3.7713107638888896,-1
172,56.797680735930705,-2.2469444444444444,1
154,54.46702561327562,-5.218350168350169,-1
132,42.245672799422785,-3.1833333333333336,1
212,68.55715990259739,-3.611111111111111,-1
106,34.19776875901876,-4.9132996632996635,1
192,48.96018398268393,-2.132751322751323,-1
86,45.656242784992756,-11.325000000000005,1
156,44.492265512265504,-4.758080808080809,-1
118,32.700015632515615,-4.634166666666667,-1
78,24.319733044733045,-1.4630952380952382,1
86,21.0268235930736,-0.8852380952380953,1
72,19.113553391053394,-2.625,-1
64,24.548907828282836,-0.831818181818182,1
72,20.804371572871574,-2.497222222222222,-1
74,27.290191197691197,-2.286111111111111,1
60,23.798141414141416,-1.8064935064935068,-1
98,30.4524963924964,-1.9783333333333335,-1
76,25.190234487734493,-2.798958333333333,1
66,18.499718614718617,-2.0805555555555557,1
84,20.86031746031746,-1.2999999999999998,-1
72,25.093487253487247,-1.9727693602693606,1
98,35.13124999999999,-2.216666666666667,-1
102,30.228879870129884,-4.333333333333334,1
90,49.884610780423245,-18.276262626262625,-1
134,54.005937950937955,-6.146759259259258,-1
160,50.274186507936484,-3.1495490620490623,-1
164,52.7330667943168,-4.940277777777778,1
196,55.11997089947086,-6.482380952380952,1
96,32.27753246753247,-4.211111111111112,1
140,54.22300324675324,-2.9681904761904763,1
120,31.251497113997118,-2.7583333333333337,-1
152,44.65508898508895,-1.3583333333333334,1
88,36.77597402597402,-3.4047619047619047,1
96,23.506971139971142,-1.0833333333333335,1
50,17.055558132343847,-1.9272727272727275,-1
92,24.408614718614725,-3.743398268398267,-1
86,21.752799122174128,-0.2566666666666667,-1
80,26.206583694083687,-1.0,-1
130,42.74795792748917,-0.15,1
62,22.2497619047619,-1.7166666666666668,-1
86,31.10947619047619,-0.4636363636363636,-1
86,32.5860477842741,-1.3816666666666668,-1
110,38.28687744794886,-0.6845959595959596,1
86,24.726082251082254,-1.8166666666666669,-1
78,25.73133044733045,-1.835,-1
120,34.26503896103896,-3.1364583333333336,1
110,35.95416017316017,-3.4916666666666676,-1
134,57.839525974025975,-5.80238095238095,-1
100,32.622575036075034,-0.7416666666666667,1
142,47.41183621933621,-2.3611111111111116,-1
116,34.891156204906196,-4.296969696969697,1
158,48.54452331349208,-3.3226190476190474,1
104,33.894507936507935,-3.0999999999999996,-1
142,35.48698097041847,-2.0290476190476188,-1
62,22.78132323232324,-0.7142857142857144,-1
110,30.901995400432906,-4.183333333333334,1
92,24.961666666666673,-1.95,1
72,24.77214105339105,-2.096969696969697,-1
98,26.152478594941766,-1.3603606549700302,-1
62,20.224778138528137,-2.0900793650793656,1
56,15.06287878787879,-0.5,-1
78,29.577067821067825,-2.8357142857142863,1
84,34.6559595959596,-0.7428571428571428,1
48,21.211474567099568,-3.0552813852813854,1
54,24.200033369408377,-2.288888888888889,1
68,19.126067821067817,-1.0833333333333335,1
76,28.00576975108226,-1.235858585858586,-1
92,27.027601010101012,-1.375,1
64,23.2043253968254,-2.0287157287157287,-1
74,21.594933862433862,-0.8553030303030303,-1
98,33.70285533910533,-4.128219696969697,-1
212,57.045909090909056,-1.4876623376623377,1
134,48.83709956709954,-1.3601641414141414,-1
148,53.13190476190474,-2.0972222222222223,1
172,51.67722763347759,-4.2830808080808085,1
140,42.904384018759025,-2.8625,-1
96,27.213308080808083,-0.9136363636363636,1
76,29.795097402597406,-3.7333333333333334,1
94,30.760909090909095,-1.509469696969697,-1
62,18.95054112554113,-1.9444444444444444,-1
96,25.663668831168824,-2.191666666666667,-1
72,19.79979437229437,-0.4270833333333333,1
68,20.25896464646465,-0.3214285714285714,-1
